{
  "IcoMoonType": "selection",
  "icons": [
    {
      "icon": {
        "paths": [
          "M1005.010 178.8l-159.8-159.796c-12.256-12.256-28.552-19.004-45.884-19.004-17.334 0-33.628 6.748-45.884 19.004l-636.030 636.030c-0.272 0.274-0.512 0.564-0.766 0.846-0.15 0.168-0.308 0.328-0.454 0.502-0.516 0.618-0.996 1.252-1.426 1.912-0.004 0.006-0.008 0.012-0.012 0.020-0.434 0.666-0.814 1.354-1.162 2.054-0.080 0.16-0.152 0.326-0.228 0.49-0.274 0.59-0.518 1.19-0.73 1.796-0.038 0.108-0.092 0.208-0.128 0.314l-111.448 334.314c-2.432 7.294-0.534 15.336 4.904 20.772 3.868 3.87 9.054 5.946 14.354 5.946 2.148 0 4.314-0.34 6.416-1.044l334.314-111.452c0.106-0.034 0.204-0.088 0.308-0.126 0.61-0.216 1.214-0.458 1.806-0.734 0.162-0.076 0.324-0.146 0.486-0.226 0.706-0.35 1.398-0.73 2.068-1.17 0.002-0.002 0.004-0.002 0.006-0.004 0.662-0.432 1.3-0.914 1.916-1.43 0.17-0.142 0.326-0.296 0.494-0.444 0.286-0.256 0.578-0.498 0.852-0.772l561.004-561.006c0.002-0.002 0.006-0.004 0.008-0.006s0.004-0.006 0.006-0.008l75.010-75.010c25.3-25.302 25.3-66.468 0-91.768zM692.778 137.080l82.726 82.728-532.308 532.308-82.726-82.726 532.308-532.31zM52.41 971.608l23.984-71.942 47.95 47.96-71.934 23.982zM167.394 933.274l-76.648-76.666 49.886-149.646 176.42 176.418-149.658 49.894zM354.628 863.546l-82.728-82.726 532.308-532.308 82.724 82.724-532.304 532.31zM976.304 241.866l-60.666 60.666-194.156-194.156 60.666-60.666c9.472-9.474 24.886-9.474 34.356 0l159.8 159.798c9.472 9.472 9.472 24.886 0 34.358z",
          "M664.584 246.788c-7.924-7.924-20.778-7.924-28.704 0l-126.53 126.532c-7.928 7.928-7.928 20.78 0 28.706 3.964 3.962 9.158 5.946 14.352 5.946s10.39-1.984 14.352-5.946l126.53-126.532c7.926-7.926 7.926-20.778 0-28.706z",
          "M697.25 193.152c-26.12 0-26.166 40.594 0 40.594 26.122 0 26.164-40.594 0-40.594z"
        ],
        "attrs": [
          {},
          {},
          {}
        ],
        "isMulticolor": false,
        "isMulticolor2": false,
        "grid": 0,
        "tags": [
          "pencil"
        ]
      },
      "attrs": [
        {},
        {},
        {}
      ],
      "properties": {
        "order": 21,
        "id": 18,
        "name": "pencil",
        "prevSize": 32,
        "code": 59662
      },
      "setIdx": 0,
      "setId": 10,
      "iconIdx": 0
    },
    {
      "icon": {
        "paths": [
          "M512 0c-282.309 0-512 229.671-512 512s229.691 512 512 512 512-229.671 512-512-229.691-512-512-512zM512 984.615c-260.588 0-472.615-212.027-472.615-472.615s212.027-472.615 472.615-472.615 472.615 212.027 472.615 472.615-212.027 472.615-472.615 472.615z",
          "M758.154 492.308h-226.462v-216.615c0-10.89-8.822-19.692-19.692-19.692s-19.692 8.802-19.692 19.692v216.615h-226.462c-10.87 0-19.692 8.802-19.692 19.692s8.822 19.692 19.692 19.692h226.462v236.308c0 10.89 8.822 19.692 19.692 19.692s19.692-8.802 19.692-19.692v-236.308h226.462c10.87 0 19.692-8.802 19.692-19.692s-8.822-19.692-19.692-19.692z"
        ],
        "attrs": [
          {},
          {}
        ],
        "isMulticolor": false,
        "isMulticolor2": false,
        "grid": 0,
        "tags": [
          "plus"
        ]
      },
      "attrs": [
        {},
        {}
      ],
      "properties": {
        "order": 18,
        "id": 16,
        "name": "plus",
        "prevSize": 32,
        "code": 59663
      },
      "setIdx": 0,
      "setId": 10,
      "iconIdx": 2
    },
    {
      "icon": {
        "paths": [
          "M789.334 85.334h-114.816l-13.226-26.368c-18.178-36.396-54.742-58.966-95.404-58.966h-107.818c-40.662 0-77.184 22.57-95.402 58.966l-13.184 26.368h-114.816c-58.838 0-106.668 47.872-106.668 106.666v42.666c0 11.776 9.558 21.334 21.334 21.334h725.334c11.776 0 21.334-9.558 21.334-21.334v-42.666c-0.002-58.794-47.832-106.666-106.668-106.666zM853.334 213.334h-682.668v-21.334c0-35.286 28.714-64 64-64h128c8.064 0 15.446-4.566 19.072-11.776l19.114-38.186c10.88-21.802 32.81-35.37 57.258-35.37h107.818c24.406 0 46.336 13.568 57.258 35.37l19.072 38.186c3.626 7.21 11.008 11.776 19.072 11.776h128c35.286 0 64 28.714 64 64v21.334z",
          "M832 213.334h-640c-11.776 0-21.334 9.558-21.334 21.334v640c0 82.346 66.988 149.332 149.334 149.332h384c82.346 0 149.334-66.986 149.334-149.334v-640c-0-11.776-9.558-21.332-21.334-21.332zM810.666 874.666c0 58.794-47.83 106.666-106.666 106.666h-384c-58.838 0-106.666-47.872-106.666-106.666v-618.666h597.334v618.666z",
          "M320 341.334c-11.776 0-21.334 9.558-21.334 21.334v512c0 11.776 9.558 21.334 21.334 21.334s21.334-9.558 21.334-21.334v-512c0-11.778-9.558-21.334-21.334-21.334z",
          "M448 341.334c-11.776 0-21.334 9.558-21.334 21.334v512c0 11.776 9.558 21.334 21.334 21.334s21.334-9.558 21.334-21.334v-512c0-11.778-9.558-21.334-21.334-21.334z",
          "M576 341.334c-11.776 0-21.334 9.558-21.334 21.334v512c0 11.776 9.558 21.334 21.334 21.334s21.334-9.558 21.334-21.334v-512c0-11.778-9.558-21.334-21.334-21.334z",
          "M704 341.334c-11.776 0-21.334 9.558-21.334 21.334v512c0 11.776 9.558 21.334 21.334 21.334s21.334-9.558 21.334-21.334v-512c0-11.778-9.558-21.334-21.334-21.334z"
        ],
        "attrs": [
          {},
          {},
          {},
          {},
          {},
          {}
        ],
        "isMulticolor": false,
        "isMulticolor2": false,
        "grid": 0,
        "tags": [
          "trash"
        ]
      },
      "attrs": [
        {},
        {},
        {},
        {},
        {},
        {}
      ],
      "properties": {
        "order": 17,
        "id": 15,
        "name": "trash",
        "prevSize": 32,
        "code": 59664
      },
      "setIdx": 0,
      "setId": 10,
      "iconIdx": 3
    },
    {
      "icon": {
        "paths": [
          "M1016.18 500.265c-7.169-10.753-179.265-263.288-504.18-263.288s-497.011 252.534-504.18 263.288l-7.82 11.735 7.82 11.735c7.169 10.753 179.265 263.288 504.18 263.288s497.011-252.534 504.18-263.288l7.82-11.735-7.82-11.735zM51.66 511.979c27.455-35.677 120.083-143.242 270.731-198.699-52.503 50.116-85.414 120.579-85.414 198.72 0 78.030 32.814 148.411 85.184 198.511-150.256-55.533-243.002-162.927-270.502-198.532zM512 744.711c-128.318 0-232.711-104.394-232.711-232.711s104.394-232.711 232.711-232.711 232.711 104.394 232.711 232.711-104.394 232.711-232.711 232.711zM701.609 710.72c52.503-50.116 85.414-120.579 85.414-198.72 0-78.030-32.814-148.411-85.184-198.511 150.258 55.533 243.002 162.927 270.502 198.532-27.455 35.677-120.083 143.242-270.731 198.699z",
          "M512 406.222c-58.322 0-105.778 47.455-105.778 105.778s47.455 105.778 105.778 105.778 105.778-47.455 105.778-105.778-47.455-105.778-105.778-105.778zM512 575.467c-34.998 0-63.467-28.469-63.467-63.467s28.469-63.467 63.467-63.467 63.467 28.469 63.467 63.467-28.469 63.467-63.467 63.467z",
          "M490.844 4.266h42.311v148.089h-42.311v-148.089z",
          "M789.847 221.112l74.030-128.26 36.646 21.151-74.030 128.26-36.646-21.151z",
          "M123.447 114.032l36.641-21.156 74.045 128.245-36.641 21.156-74.045-128.245z",
          "M490.844 871.645h42.311v148.089h-42.311v-148.089z",
          "M789.871 802.89l36.646-21.151 74.030 128.26-36.646 21.151-74.030-128.26z",
          "M123.391 909.935l74.030-128.26 36.646 21.151-74.030 128.26-36.646-21.151z"
        ],
        "attrs": [
          {},
          {},
          {},
          {},
          {},
          {},
          {},
          {}
        ],
        "isMulticolor": false,
        "isMulticolor2": false,
        "grid": 0,
        "tags": [
          "view"
        ]
      },
      "attrs": [
        {},
        {},
        {},
        {},
        {},
        {},
        {},
        {}
      ],
      "properties": {
        "order": 16,
        "id": 14,
        "name": "view",
        "prevSize": 32,
        "code": 59665
      },
      "setIdx": 0,
      "setId": 10,
      "iconIdx": 4
    },
    {
      "icon": {
        "paths": [
          "M970.104 97.684h-168.422v-67.368c0-11.17-9.054-20.21-20.21-20.21s-20.21 9.040-20.21 20.21v67.368h-498.524v-67.368c0-11.17-9.054-20.21-20.21-20.21s-20.21 9.040-20.21 20.21v67.368h-168.42c-29.646 0-53.898 24.252-53.898 53.896v808.42c0 29.64 24.252 53.896 53.896 53.896h916.21c29.64 0 53.894-24.252 53.894-53.896v-808.42c0-29.644-24.254-53.896-53.896-53.896zM983.578 960c0 7.302-6.172 13.474-13.474 13.474h-916.208c-7.302 0-13.474-6.172-13.474-13.474v-626.528h943.156v626.528zM983.578 293.052h-943.156v-141.472c0-7.302 6.172-13.474 13.474-13.474h168.42v67.368c0 11.17 9.054 20.21 20.21 20.21s20.21-9.040 20.21-20.21v-67.37h498.526v67.37c0 11.17 9.054 20.21 20.21 20.21s20.21-9.040 20.21-20.21v-67.37h168.42c7.302 0 13.474 6.172 13.474 13.474v141.474z",
          "M626.554 567.054c-8.662-7.048-21.398-5.726-28.43 2.924l-106.442 130.912-68.54-57.1c-8.582-7.142-21.314-5.982-28.458 2.588s-5.982 21.314 2.588 28.458l84.238 70.198c4.164 3.45 9.526 5.106 14.89 4.596 5.362-0.526 10.336-3.178 13.744-7.37l119.35-146.796c7.030-8.634 5.722-21.366-2.94-28.41z",
          "M511.998 421.052c-126.504 0-229.054 102.548-229.054 229.054s102.548 229.054 229.054 229.054 229.054-102.548 229.054-229.054-102.548-229.054-229.054-229.054zM511.998 838.736c-104.016 0-188.632-84.616-188.632-188.632s84.616-188.632 188.632-188.632c104.016 0 188.632 84.628 188.632 188.632 0 104.016-84.614 188.632-188.632 188.632z"
        ],
        "attrs": [
          {},
          {},
          {}
        ],
        "isMulticolor": false,
        "isMulticolor2": false,
        "grid": 0,
        "tags": [
          "booking"
        ]
      },
      "attrs": [
        {},
        {},
        {}
      ],
      "properties": {
        "order": 2,
        "id": 13,
        "name": "booking",
        "prevSize": 32,
        "code": 59648
      },
      "setIdx": 0,
      "setId": 10,
      "iconIdx": 5
    },
    {
      "icon": {
        "paths": [
          "M970.104 87.22h-175.158v-60.252c0-11.236-9.054-20.344-20.21-20.344s-20.21 9.108-20.21 20.344v60.268h-485.214v-60.268c0-11.236-9.054-20.344-20.21-20.344s-20.21 9.108-20.21 20.344v60.268h-174.996c-29.656 0-53.896 24.428-53.896 54.258v821.624c0 29.844 24.24 54.258 53.896 54.258h916.21c29.628 0 53.894-24.428 53.894-54.258v-821.624c0-29.844-24.266-54.274-53.896-54.274zM983.578 963.118c0 7.344-6.186 13.568-13.474 13.568h-916.208c-7.316 0-13.474-6.224-13.474-13.568v-632.816h943.156v632.816zM983.58 289.608h-943.158v-148.114c0-7.358 6.156-13.568 13.474-13.568h174.996v75.426c0 11.236 9.054 20.344 20.21 20.344s20.21-9.108 20.21-20.344v-75.426h485.214v75.426c0 11.236 9.054 20.344 20.21 20.344s20.21-9.108 20.21-20.344v-75.426h175.158c7.29 0 13.474 6.212 13.474 13.568v148.114z",
          "M465.11 464.672h-94.288c-11.156 0-20.21 9.122-20.21 20.358s9.054 20.358 20.21 20.358h94.288c11.156 0 20.21-9.122 20.21-20.358s-9.054-20.358-20.21-20.358z",
          "M653.742 464.672h-94.316c-11.156 0-20.21 9.122-20.21 20.358s9.054 20.358 20.21 20.358h94.316c11.156 0 20.21-9.122 20.21-20.358s-9.054-20.358-20.21-20.358z",
          "M842.372 464.672h-94.316c-11.156 0-20.21 9.122-20.21 20.358s9.054 20.358 20.21 20.358h94.316c11.156 0 20.21-9.122 20.21-20.358s-9.052-20.358-20.21-20.358z",
          "M465.11 585.936h-94.288c-11.156 0-20.21 9.122-20.21 20.358s9.054 20.358 20.21 20.358h94.288c11.156 0 20.21-9.122 20.21-20.358s-9.054-20.358-20.21-20.358z",
          "M653.742 585.936h-94.316c-11.156 0-20.21 9.122-20.21 20.358s9.054 20.358 20.21 20.358h94.316c11.156 0 20.21-9.122 20.21-20.358s-9.054-20.358-20.21-20.358z",
          "M842.372 585.936h-94.316c-11.156 0-20.21 9.122-20.21 20.358s9.054 20.358 20.21 20.358h94.316c11.156 0 20.21-9.122 20.21-20.358s-9.052-20.358-20.21-20.358z",
          "M263.020 585.936h-94.316c-11.156 0-20.21 9.122-20.21 20.358s9.054 20.358 20.21 20.358h94.316c11.13 0 20.21-9.122 20.21-20.358-0.002-11.236-9.068-20.358-20.21-20.358z",
          "M465.11 707.212h-94.288c-11.156 0-20.21 9.108-20.21 20.344s9.054 20.358 20.21 20.358h94.288c11.156 0 20.21-9.122 20.21-20.358 0.002-11.236-9.054-20.344-20.21-20.344z",
          "M653.742 707.212h-94.316c-11.156 0-20.21 9.108-20.21 20.344s9.054 20.358 20.21 20.358h94.316c11.156 0 20.21-9.122 20.21-20.358s-9.054-20.344-20.21-20.344z",
          "M842.372 707.212h-94.316c-11.156 0-20.21 9.108-20.21 20.344s9.054 20.358 20.21 20.358h94.316c11.156 0 20.21-9.122 20.21-20.358 0.002-11.236-9.052-20.344-20.21-20.344z",
          "M263.020 707.212h-94.316c-11.156 0-20.21 9.108-20.21 20.344s9.054 20.358 20.21 20.358h94.316c11.13 0 20.21-9.122 20.21-20.358 0.002-11.236-9.068-20.344-20.21-20.344z",
          "M263.020 828.476h-94.316c-11.156 0-20.21 9.108-20.21 20.344s9.054 20.358 20.21 20.358h94.316c11.13 0 20.21-9.122 20.21-20.358-0.002-11.236-9.068-20.344-20.21-20.344z",
          "M451.638 828.476h-94.288c-11.156 0-20.21 9.108-20.21 20.344s9.054 20.358 20.21 20.358h94.288c11.156 0 20.21-9.122 20.21-20.358s-9.054-20.344-20.21-20.344z",
          "M640.268 828.476h-94.316c-11.156 0-20.21 9.108-20.21 20.344s9.054 20.358 20.21 20.358h94.316c11.156 0 20.21-9.122 20.21-20.358 0.002-11.236-9.054-20.344-20.21-20.344z"
        ],
        "attrs": [
          {},
          {},
          {},
          {},
          {},
          {},
          {},
          {},
          {},
          {},
          {},
          {},
          {},
          {},
          {}
        ],
        "isMulticolor": false,
        "isMulticolor2": false,
        "grid": 0,
        "tags": [
          "calendar"
        ]
      },
      "attrs": [
        {},
        {},
        {},
        {},
        {},
        {},
        {},
        {},
        {},
        {},
        {},
        {},
        {},
        {},
        {}
      ],
      "properties": {
        "order": 3,
        "id": 12,
        "name": "calendar",
        "prevSize": 32,
        "code": 59649
      },
      "setIdx": 0,
      "setId": 10,
      "iconIdx": 6
    },
    {
      "icon": {
        "paths": [
          "M426.667 341.333h-51.2v-68.267c0-53.931-41.933-98.15-94.908-102.025 16.503-18.176 26.641-42.223 26.641-68.642 0-56.474-45.926-102.4-102.4-102.4s-102.4 45.926-102.4 102.4c0 26.419 10.138 50.466 26.641 68.642-52.975 3.874-94.908 48.094-94.908 102.025v68.267h-34.133v34.133h409.6v51.2h-34.133c-9.421 0-17.067 7.629-17.067 17.067v375.467h-358.4v34.133h375.467c9.421 0 17.067-7.629 17.067-17.067v-375.467h34.133c9.421 0 17.067-7.629 17.067-17.067v-85.333c0-9.438-7.646-17.067-17.067-17.067zM204.8 34.133c37.649 0 68.267 30.618 68.267 68.267s-30.618 68.267-68.267 68.267-68.267-30.618-68.267-68.267 30.618-68.267 68.267-68.267zM341.333 341.333h-51.2v-68.267h-34.133v68.267h-102.4v-68.267h-34.133v68.267h-51.2v-68.267c0-37.649 30.618-68.267 68.267-68.267h136.533c37.649 0 68.267 30.618 68.267 68.267v68.267z",
          "M972.8 665.6h-17.067v-290.133c0-51.439-32.751-95.266-78.438-112.060 26.999-21.914 44.305-55.33 44.305-92.74 0-65.86-53.589-119.467-119.467-119.467s-119.467 53.606-119.467 119.467c0 37.41 17.306 70.827 44.305 92.74-43.725 16.060-75.452 56.917-78.114 105.472l-113.289 135.953c-14.165 16.981-17.118 39.987-7.748 60.023s28.979 32.478 51.081 32.478c16.777 0 32.58-7.407 43.332-20.275l26.3-31.573v120.115h-17.067c-28.228 0-51.2 22.972-51.2 51.2v187.733c0 25.037 18.091 45.841 41.847 50.261-5.632 14.831-4.523 31.232 3.959 44.937 9.404 15.189 25.668 24.269 43.554 24.269h26.078c19.524 0 37.052-10.854 45.79-28.297l19.985-39.97h98.372l19.985 39.97c8.721 17.442 26.266 28.297 45.79 28.297h26.078c17.869 0 34.15-9.079 43.554-24.286s10.24-33.826 2.236-49.818l-0.307-0.631c15.889-8.687 26.812-25.378 26.812-44.732v-187.733c0-28.228-22.972-51.2-51.2-51.2zM716.8 170.667c0-47.053 38.281-85.333 85.333-85.333s85.333 38.281 85.333 85.333c0 47.053-38.281 85.333-85.333 85.333-16.691 0-32.154-5.001-45.329-13.312 17.22-12.442 28.262-32.427 28.262-54.955h-34.133c0 13.449-7.868 25.105-19.541 30.601-9.216-13.619-14.592-30.020-14.592-47.667zM682.667 498.347v-122.88c0-47.053 38.281-85.333 85.333-85.333h68.267c47.053 0 85.333 38.281 85.333 85.333v290.133h-34.133v-17.067c0-22.221-14.319-40.994-34.133-48.060v-190.874c0-28.228-22.972-51.2-51.2-51.2s-51.2 22.972-51.2 51.2v190.874c-19.814 7.066-34.133 25.839-34.133 48.060v17.067h-34.133v-167.253zM836.267 631.467c9.404 0 17.067 7.646 17.067 17.067v17.067h-102.4v-17.067c0-9.421 7.663-17.067 17.067-17.067h68.267zM785.067 597.333v-187.733c0-9.421 7.663-17.067 17.067-17.067s17.067 7.646 17.067 17.067v187.733h-34.133zM596.019 555.179c-4.25 5.103-10.479 8.021-17.118 8.021-8.858 0-16.401-4.796-20.156-12.817-3.755-8.038-2.611-16.896 3.055-23.706l86.733-104.073v69.564l-52.514 63.010zM710.963 980.429c-2.901 5.82-8.755 9.438-15.258 9.438h-26.078c-8.585 0-13.005-5.666-14.524-8.107-1.502-2.441-4.591-8.909-0.734-16.606l4.71-9.421h64.239l-12.356 24.695zM966.229 981.76c-1.519 2.441-5.939 8.107-14.524 8.107h-26.078c-6.502 0-12.356-3.618-15.258-9.438l-12.356-24.695h64.239l4.71 9.438c3.84 7.68 0.768 14.165-0.734 16.589zM989.867 904.533c0 9.421-7.663 17.067-17.067 17.067h-341.333c-9.404 0-17.067-7.646-17.067-17.067v-34.133h375.467v34.133zM989.867 836.267h-375.467v-51.2h375.467v51.2zM989.867 750.933h-375.467v-34.133c0-9.421 7.663-17.067 17.067-17.067h341.333c9.404 0 17.067 7.646 17.067 17.067v34.133z",
          "M642.765 55.467c-3.652-3.226-8.533-4.693-13.414-4.13l-117.35 14.66v-48.93c0-6.468-3.652-12.373-9.438-15.275-5.786-2.867-12.698-2.27-17.869 1.621l-136.533 102.4c-4.113 3.089-6.622 7.868-6.827 13.005-0.188 5.154 1.946 10.103 5.82 13.5l136.533 119.467c3.174 2.765 7.185 4.215 11.247 4.215 2.389 0 4.796-0.495 7.049-1.536 6.11-2.765 10.018-8.823 10.018-15.531v-48.93l117.35 14.66c4.881 0.597 9.745-0.905 13.414-4.13 3.669-3.243 5.769-7.902 5.769-12.8v-119.467c0-4.898-2.099-9.557-5.769-12.8zM614.4 168.397l-117.35-14.66c-4.881-0.529-9.745 0.905-13.414 4.13-3.669 3.243-5.769 7.902-5.769 12.8v30.652l-92.382-80.828 92.382-69.291v34.133c0 4.898 2.099 9.557 5.769 12.8 3.669 3.226 8.533 4.71 13.414 4.13l117.35-14.66v80.794z"
        ],
        "attrs": [
          {},
          {},
          {}
        ],
        "isMulticolor": false,
        "isMulticolor2": false,
        "grid": 0,
        "tags": [
          "check-in"
        ]
      },
      "attrs": [
        {},
        {},
        {}
      ],
      "properties": {
        "order": 4,
        "id": 11,
        "name": "check-in",
        "prevSize": 32,
        "code": 59650
      },
      "setIdx": 0,
      "setId": 10,
      "iconIdx": 7
    },
    {
      "icon": {
        "paths": [
          "M851.171 453.246c-27.766 0-50.361 22.595-50.361 50.361v167.869c0 27.766 22.595 50.361 50.361 50.361s50.361-22.595 50.361-50.361v-167.869c0-27.766-22.595-50.361-50.361-50.361zM867.958 671.475c0 9.266-7.537 16.787-16.787 16.787s-16.787-7.521-16.787-16.787v-167.869c0-9.266 7.537-16.787 16.787-16.787s16.787 7.521 16.787 16.787v167.869z",
          "M1011.485 956.886l-26.020-169.178v-300.888c0-46.483-27.195-86.62-66.442-105.673 29.981-21.319 49.656-56.253 49.656-95.769 0-64.781-52.711-117.508-117.508-117.508s-117.508 52.728-117.508 117.508c0 39.516 19.674 74.45 49.656 95.769-22.948 11.146-41.749 29.461-53.399 52.106l-169.061 169.044c-18.919 18.936-19.406 49.219-1.813 68.977l-43.612 43.612-83.934-83.934v-177.706h33.574c9.266 0 16.787-7.504 16.787-16.787v-83.934c0-9.283-7.521-16.787-16.787-16.787h-50.361v-67.148c0-53.047-41.245-96.541-93.352-100.352 16.233-17.878 26.204-41.531 26.204-67.517 0-55.548-45.174-100.721-100.721-100.721s-100.721 45.174-100.721 100.721c0 25.986 9.971 49.639 26.204 67.517-52.106 3.811-93.352 47.305-93.352 100.352v67.148h-67.148v33.574h436.459v50.361h-33.574c-9.266 0-16.787 7.504-16.787 16.787v194.493l-174.819 174.819h-211.28v33.574h177.706l-21.705 21.705c-6.564 6.564-6.564 17.173 0 23.737l112.59 112.59v26.624h33.574v-26.624l230.098-230.098c6.564-6.564 6.564-17.173 0-23.737l-4.919-4.919 48.867-48.867c3.676 0.839 7.453 1.393 11.314 1.393 13.446 0 26.104-5.238 35.605-14.756l81.92-81.903v239.767l-80.711 121.067c-7.017 10.525-9.182 23.586-5.943 35.823 3.257 12.238 11.6 22.511 22.998 28.202 6.11 3.038 12.943 4.65 19.758 4.65h29.26c14.789 0 28.521-7.353 36.73-19.657l92.596-138.895c1.83-2.753 2.82-6.010 2.82-9.317v-50.361h35.958l25.969 168.842c4.415 28.622 28.638 49.387 57.579 49.387h0.034c17.022 0 33.137-7.403 44.217-20.329s15.948-29.965 13.346-46.785zM246.843 33.574c37.032 0 67.148 30.116 67.148 67.148s-30.116 67.148-67.148 67.148-67.148-30.116-67.148-67.148 30.116-67.148 67.148-67.148zM381.138 335.738h-50.361v-67.148h-33.574v67.148h-100.721v-67.148h-33.574v67.148h-50.361v-67.148c0-37.032 30.116-67.148 67.148-67.148h134.295c37.032 0 67.148 30.116 67.148 67.148v67.148zM297.203 966.69l-93.772-93.772 211.28-211.28 93.772 93.772-211.28 211.28zM767.236 285.377c0-46.281 37.653-83.934 83.934-83.934s83.934 37.653 83.934 83.934c0 17.358-5.288 33.49-14.353 46.886-11.482-5.405-19.221-16.871-19.221-30.099h-33.574c0 22.159 10.861 41.816 27.799 54.054-12.959 8.175-28.168 13.094-44.586 13.094-46.281 0-83.934-37.653-83.934-83.934zM611.236 652.657c-6.329 6.362-17.391 6.362-23.737 0l-2.871-2.887c-6.547-6.547-6.547-17.19 0-23.737l132.247-132.247v53.231l-105.64 105.64zM800.81 851.045l-89.776 134.664c-1.964 2.971-5.254 4.717-8.813 4.717h-29.26c-1.645 0-3.273-0.369-4.801-1.142-3.71-1.847-5.036-5.019-5.489-6.732s-0.873-5.137 1.427-8.595l83.532-125.297c1.83-2.753 2.82-6.010 2.82-9.317v-33.574h50.361v45.274zM884.744 772.197h-134.295v-285.377c0-5.238 0.621-10.324 1.544-15.293 0.151-0.806 0.235-1.612 0.42-2.401 0.94-4.381 2.333-8.578 3.945-12.674 0.554-1.393 1.108-2.787 1.729-4.163 13.211-29.058 42.353-49.404 76.296-49.404h33.574c46.281 0 83.934 37.653 83.934 83.934v285.377h-67.148zM972.657 981.798c-4.7 5.473-11.549 8.628-18.768 8.628-12.271 0-22.528-8.796-24.391-20.933l-25.18-163.722h49.975l24.039 156.236c1.074 7.101-0.99 14.336-5.674 19.792z",
          "M710.161 120.866l-134.295-100.721c-5.103-3.844-11.885-4.432-17.576-1.595-5.691 2.854-9.283 8.662-9.283 15.024v48.128l-115.427-14.42c-4.835-0.554-9.585 0.89-13.194 4.062-3.609 3.19-5.674 7.772-5.674 12.59v117.508c0 4.818 2.065 9.401 5.674 12.59 3.609 3.173 8.36 4.65 13.194 4.062l115.427-14.42v48.128c0 6.597 3.844 12.557 9.854 15.276 2.216 1.024 4.583 1.511 6.933 1.511 3.995 0 7.94-1.427 11.063-4.146l134.295-117.508c3.794-3.341 5.909-8.209 5.724-13.278-0.201-5.053-2.669-9.753-6.715-12.792zM582.58 214.805v-30.149c0-4.818-2.065-9.401-5.674-12.59-3.089-2.719-7.050-4.197-11.113-4.197-0.688 0-1.393 0.050-2.082 0.134l-115.427 14.42v-79.469l115.427 14.42c4.835 0.571 9.585-0.89 13.194-4.062 3.609-3.19 5.674-7.772 5.674-12.59v-33.574l90.867 68.155-90.867 79.503z"
        ],
        "attrs": [
          {},
          {},
          {}
        ],
        "isMulticolor": false,
        "isMulticolor2": false,
        "grid": 0,
        "tags": [
          "check-out"
        ]
      },
      "attrs": [
        {},
        {},
        {}
      ],
      "properties": {
        "order": 5,
        "id": 10,
        "name": "check-out",
        "prevSize": 32,
        "code": 59651
      },
      "setIdx": 0,
      "setId": 10,
      "iconIdx": 8
    },
    {
      "icon": {
        "paths": [
          "M797.914 710.804c-0.004-0.002-0.008-0.006-0.014-0.008-15.95-10.346-28.784-15.256-31.824-16.348l-92.56-38.572-65.258-43.064c-0.628-0.416-1.282-0.762-1.944-1.080v-27.902c49.276-24.602 84.974-72.436 92.678-129.072 39.73-3.216 71.082-36.554 71.082-77.098 0-20.062-7.676-38.362-20.24-52.124v-99.016c0.004-124.906-101.61-226.52-226.512-226.52h-17.534c-124.892 0-226.5 101.614-226.5 226.514v97.91c-13.18 13.882-21.294 32.622-21.294 53.23 0 40.544 31.352 73.882 71.082 77.098 7.706 56.638 43.406 104.472 92.684 129.072v26.094l-68.022 44.884c-0.922 0.204-1.84 0.476-2.742 0.852l-93.068 38.784c-4.654 1.666-32.004 12.176-59.158 37.82-26.88 25.384-58.922 71.056-58.922 144.5v130.97c0 8.98 7.276 16.262 16.258 16.262h192.048c8.98 0 16.258-7.276 16.258-16.258 0-8.98-7.276-16.258-16.258-16.258h-50.082v-120.67c0-8.98-7.276-16.258-16.258-16.258s-16.258 7.276-16.258 16.258v120.67h-93.19v-114.712c0-117.124 92.684-150.388 96.572-151.728 0.364-0.124 0.722-0.256 1.076-0.404l77.526-32.308 83.8 299.154h-32.304c-8.98 0-16.258 7.276-16.258 16.258s7.276 16.258 16.258 16.258h53.68c0.018 0 0.034 0.004 0.054 0.004 0.022 0 0.044-0.004 0.062-0.004h122.69c0.022 0 0.044 0.004 0.062 0.004s0.034-0.004 0.054-0.004h292.254c8.98 0 16.258-7.312 16.258-16.29v-130.942c-0.002-95.69-54.024-145.048-86.236-165.956zM647.262 677.504l-48.97 100.65-60.744-44.708 64.22-66.662c3.566-3.7 5.016-8.652 4.402-13.378 0.086-0.678 0.146-1.366 0.146-2.066v-0.852l40.946 27.016zM548.484 781.862l-12.774 34.020-43.786 0.002-14.374-34.31 35.27-25.958 35.664 26.246zM454.030 654.066c0.15-0.888 0.248-1.796 0.248-2.73v-32.496c0-0.008 0-0.016 0-0.024v-22.73c13.77 3.616 28.21 5.556 43.1 5.556h33.33c14.888 0 29.326-1.94 43.096-5.554v52.856l-60.526 62.828-59.248-57.706zM737.564 377.656c-0.002 22.038-15.99 40.376-36.968 44.122v-88.25c20.978 3.744 36.968 22.086 36.968 44.128zM327.478 421.778c-20.978-3.746-36.968-22.082-36.968-44.122 0-22.044 15.988-40.384 36.968-44.13v88.252zM343.8 284.644c-0.024 0-0.048 0-0.070 0-0.56 0-1.112 0.028-1.658 0.084-0.172 0.018-0.336 0.054-0.508 0.078-0.37 0.050-0.742 0.096-1.104 0.17-0.234 0.048-0.458 0.12-0.688 0.176-0.29 0.074-0.584 0.134-0.868 0.224-0.264 0.082-0.518 0.188-0.776 0.282-0.238 0.086-0.482 0.162-0.714 0.26-0.296 0.126-0.578 0.274-0.868 0.416-0.182 0.092-0.372 0.17-0.552 0.266-0.28 0.152-0.546 0.328-0.818 0.494-0.174 0.108-0.354 0.204-0.522 0.318-0.258 0.174-0.498 0.368-0.746 0.554-0.166 0.128-0.342 0.244-0.506 0.378-0.224 0.182-0.428 0.384-0.64 0.578-0.172 0.156-0.352 0.306-0.516 0.468-0.196 0.196-0.376 0.408-0.56 0.614-0.162 0.18-0.334 0.352-0.488 0.538-0.172 0.206-0.322 0.428-0.484 0.642-0.152 0.204-0.312 0.398-0.456 0.61-0.14 0.208-0.262 0.43-0.394 0.644-0.14 0.232-0.292 0.456-0.422 0.694-0.114 0.212-0.21 0.436-0.316 0.652-0.124 0.256-0.258 0.506-0.368 0.768-0.092 0.212-0.16 0.436-0.24 0.652-0.104 0.28-0.216 0.552-0.308 0.838-0.070 0.218-0.118 0.448-0.176 0.672-0.078 0.292-0.164 0.584-0.228 0.882-0.050 0.236-0.074 0.482-0.112 0.72-0.048 0.294-0.104 0.588-0.136 0.888-0.026 0.252-0.028 0.51-0.042 0.764-0.014 0.232-0.034 0.462-0.040 0.698-5.412 0.55-10.654 1.672-15.682 3.284v-77.438c0-106.966 87.022-193.994 193.986-193.994h17.534c106.974 0 194 87.028 194 194v77.796c-5.348-1.802-10.944-3.052-16.738-3.642 0-0.068-0.008-0.134-0.010-0.202-0.008-0.358-0.022-0.716-0.054-1.068-0.020-0.214-0.054-0.424-0.082-0.638-0.042-0.31-0.082-0.62-0.14-0.928-0.050-0.258-0.112-0.51-0.176-0.764-0.060-0.252-0.12-0.502-0.192-0.75-0.084-0.288-0.184-0.57-0.284-0.852-0.074-0.206-0.144-0.412-0.226-0.614-0.12-0.296-0.254-0.588-0.39-0.876-0.086-0.182-0.17-0.364-0.262-0.542-0.148-0.282-0.306-0.554-0.468-0.828-0.106-0.18-0.212-0.362-0.326-0.538-0.162-0.25-0.334-0.49-0.51-0.73-0.136-0.188-0.274-0.378-0.418-0.56-0.17-0.21-0.344-0.412-0.522-0.616-0.174-0.198-0.344-0.392-0.526-0.58-0.17-0.176-0.346-0.34-0.522-0.508-0.206-0.196-0.414-0.388-0.63-0.572-0.178-0.15-0.362-0.292-0.546-0.436-0.23-0.178-0.458-0.356-0.696-0.52-0.2-0.138-0.406-0.266-0.612-0.396-0.234-0.148-0.468-0.294-0.71-0.432-0.238-0.134-0.488-0.256-0.732-0.378-0.222-0.108-0.438-0.222-0.666-0.32-0.292-0.13-0.594-0.24-0.898-0.354-0.196-0.072-0.386-0.15-0.586-0.214-0.336-0.11-0.678-0.2-1.024-0.288-0.146-0.036-0.286-0.088-0.434-0.122-63.624-14.472-82.822-94.614-83.002-95.39-1.41-6.23-6.34-11.058-12.598-12.336-6.258-1.286-12.686 1.22-16.432 6.4-72.31 99.962-229.52 100.924-232.088 100.924-0.002-0-0.010-0-0.014-0zM359.994 431.752v-115.158c41.566-2.554 152.006-16.386 223.044-90.746 12.254 28.828 37.63 70.924 85.042 87.282v118.622c0 75.75-61.626 137.378-137.372 137.378h-33.33c-75.756-0.002-137.384-61.63-137.384-137.378zM421.762 648.878v2.46c0 1.722 0.274 3.38 0.768 4.936-1.786 5.67-0.404 12.11 4.144 16.542l61.892 60.284-61.218 45.056-48.968-100.65 43.382-28.628zM448.498 932.19l-31.884-113.824c0.254 0.076 0.5 0.17 0.758 0.232 1.288 0.316 2.592 0.472 3.894 0.472 3.434 0 6.818-1.088 9.636-3.164l19.704-14.5 13.712 32.734-15.82 98.050zM471.868 991.48l23.084-143.080h38.174l23.082 143.080h-84.34zM563.708 833.816l11.988-31.924 19.044 14.016c2.82 2.076 6.202 3.164 9.636 3.164 1.3 0 2.606-0.156 3.894-0.472 1.35-0.334 2.628-0.852 3.826-1.5l-32.414 115.714-15.974-98.998zM851.634 991.48v0h-93.198v-120.67c0-8.98-7.276-16.258-16.258-16.258-8.98 0-16.258 7.276-16.258 16.258v120.67h-128.908l83.342-297.532 73.63 30.684c0.316 0.132 0.696 0.276 1.020 0.386 0.108 0.040 10.978 3.83 25.2 13.056 0.002 0.002 0.004 0.002 0.006 0.004 32.584 21.152 71.424 62.382 71.424 138.688v114.714z",
          "M533.054 446.606c8.98 0 16.258-7.276 16.258-16.258 0-8.98-7.276-16.258-16.258-16.258h-12v-37.646c0-8.978-7.276-16.258-16.258-16.258-8.98 0-16.258 7.28-16.258 16.258v53.904c0 8.98 7.276 16.258 16.258 16.258h28.258z"
        ],
        "attrs": [
          {},
          {}
        ],
        "isMulticolor": false,
        "isMulticolor2": false,
        "grid": 0,
        "tags": [
          "customer"
        ]
      },
      "attrs": [
        {},
        {}
      ],
      "properties": {
        "order": 6,
        "id": 9,
        "name": "customer",
        "prevSize": 32,
        "code": 59652
      },
      "setIdx": 0,
      "setId": 10,
      "iconIdx": 9
    },
    {
      "icon": {
        "paths": [
          "M1006.933 716.567h-187.733v-102.4h34.133c9.438 0 17.067-7.629 17.067-17.067v-68.266c0-9.438-7.629-17.067-17.067-17.067h-682.664c-9.438 0-17.067 7.629-17.067 17.067v68.266c0 9.438 7.629 17.067 17.067 17.067h34.133v102.4h-187.733c-9.438 0-17.067 7.629-17.067 17.067v273.066c0 9.438 7.629 17.067 17.067 17.067h989.863c9.438 0 17.067-7.629 17.067-17.067v-273.066c0-9.438-7.629-17.067-17.067-17.067zM204.803 989.632h-170.666v-238.932h170.666v238.932zM785.068 733.633v255.999h-546.131v-375.465h546.131v119.466zM221.87 580.034h-34.133v-34.133h648.531v34.133h-614.397zM989.867 989.632h-170.666v-238.932h170.666v238.932z",
          "M153.604 784.833h-68.266c-9.438 0-17.067 7.629-17.067 17.067v102.4c0 9.438 7.629 17.067 17.067 17.067h68.266c9.438 0 17.067-7.629 17.067-17.067v-102.4c0-9.438-7.629-17.067-17.067-17.067zM136.537 887.233h-34.133v-68.266h34.133v68.266z",
          "M938.667 784.833h-68.266c-9.438 0-17.067 7.629-17.067 17.067v102.4c0 9.438 7.629 17.067 17.067 17.067h68.266c9.438 0 17.067-7.629 17.067-17.067v-102.4c0-9.438-7.629-17.067-17.067-17.067zM921.6 887.233h-34.133v-68.266h34.133v68.266z",
          "M375.469 648.3h-68.266c-9.438 0-17.067 7.629-17.067 17.067v102.4c0 9.438 7.629 17.067 17.067 17.067h68.266c9.438 0 17.067-7.629 17.067-17.067v-102.4c0-9.438-7.629-17.067-17.067-17.067zM358.403 750.7h-34.133v-68.266h34.133v68.266z",
          "M546.135 648.3h-68.266c-9.438 0-17.067 7.629-17.067 17.067v102.4c0 9.438 7.629 17.067 17.067 17.067h68.266c9.438 0 17.067-7.629 17.067-17.067v-102.4c0-9.438-7.629-17.067-17.067-17.067zM529.069 750.7h-34.133v-68.266h34.133v68.266z",
          "M716.801 648.3h-68.266c-9.438 0-17.067 7.629-17.067 17.067v102.4c0 9.438 7.629 17.067 17.067 17.067h68.266c9.438 0 17.067-7.629 17.067-17.067v-102.4c0-9.438-7.629-17.067-17.067-17.067zM699.735 750.7h-34.133v-68.266h34.133v68.266z",
          "M375.469 818.966h-68.266c-9.438 0-17.067 7.629-17.067 17.067v102.4c0 9.438 7.629 17.067 17.067 17.067h68.266c9.438 0 17.067-7.629 17.067-17.067v-102.4c0-9.438-7.629-17.067-17.067-17.067zM358.403 921.366h-34.133v-68.266h34.133v68.266z",
          "M546.135 818.966h-68.266c-9.438 0-17.067 7.629-17.067 17.067v102.4c0 9.438 7.629 17.067 17.067 17.067h68.266c9.438 0 17.067-7.629 17.067-17.067v-102.4c0-9.438-7.629-17.067-17.067-17.067zM529.069 921.366h-34.133v-68.266h34.133v68.266z",
          "M716.801 818.966h-68.266c-9.438 0-17.067 7.629-17.067 17.067v102.4c0 9.438 7.629 17.067 17.067 17.067h68.266c9.438 0 17.067-7.629 17.067-17.067v-102.4c0-9.438-7.629-17.067-17.067-17.067zM699.735 921.366h-34.133v-68.266h34.133v68.266z",
          "M630.871 80.546c-1.673-5.922-6.366-10.513-12.339-11.998l-61.866-15.462-30.464-45.721c-6.332-9.506-22.067-9.506-28.399 0l-30.464 45.721-61.866 15.462c-5.973 1.485-10.667 6.059-12.322 11.998-1.638 5.922 0.034 12.271 4.386 16.623l44.373 44.373-14.711 58.897c-1.621 6.468 0.666 13.278 5.871 17.442 5.222 4.181 12.373 4.898 18.312 1.946l60.621-30.31 60.638 30.31c2.406 1.212 5.035 1.809 7.629 1.809 3.806 0 7.578-1.263 10.684-3.755 5.205-4.164 7.475-10.991 5.871-17.442l-14.711-58.897 44.373-44.373c4.352-4.352 6.025-10.701 4.386-16.623zM551.136 124.236c-4.233 4.233-5.956 10.376-4.489 16.196l8.072 32.273-35.089-17.527c-2.389-1.212-5.018-1.809-7.629-1.809s-5.239 0.597-7.629 1.792l-35.089 17.527 8.072-32.273c1.468-5.82-0.256-11.964-4.489-16.196l-29.884-29.884 39.014-9.762c4.113-1.024 7.714-3.55 10.069-7.083l19.934-29.884 19.934 29.901c2.355 3.533 5.956 6.059 10.069 7.083l39.014 9.762-29.884 29.884z",
          "M852.737 148.812c-1.673-5.922-6.366-10.513-12.339-11.998l-61.866-15.462-30.464-45.721c-6.332-9.506-22.067-9.506-28.399 0l-30.464 45.721-61.866 15.462c-5.973 1.485-10.667 6.059-12.322 11.998-1.638 5.922 0.034 12.271 4.386 16.623l44.373 44.373-14.711 58.897c-1.621 6.468 0.666 13.278 5.871 17.442 5.222 4.181 12.373 4.898 18.312 1.946l60.621-30.31 60.638 30.31c2.406 1.212 5.035 1.809 7.629 1.809 3.806 0 7.578-1.263 10.684-3.755 5.205-4.164 7.475-10.991 5.871-17.442l-14.711-58.897 44.373-44.373c4.352-4.352 6.025-10.701 4.386-16.623zM773.002 192.503c-4.233 4.233-5.956 10.376-4.489 16.196l8.072 32.273-35.089-17.527c-2.389-1.212-5.018-1.809-7.629-1.809s-5.239 0.597-7.629 1.792l-35.089 17.527 8.072-32.273c1.468-5.82-0.256-11.964-4.489-16.196l-29.884-29.884 39.014-9.762c4.113-1.024 7.714-3.55 10.069-7.083l19.934-29.884 19.934 29.901c2.355 3.533 5.956 6.059 10.069 7.083l39.014 9.762-29.884 29.884z",
          "M409.005 148.812c-1.655-5.939-6.349-10.513-12.322-11.998l-61.866-15.462-30.481-45.721c-6.332-9.506-22.067-9.506-28.399 0l-30.464 45.721-61.866 15.462c-5.973 1.485-10.667 6.059-12.322 11.998-1.638 5.922 0.034 12.271 4.386 16.623l44.373 44.373-14.711 58.897c-1.621 6.468 0.666 13.278 5.871 17.442 5.222 4.181 12.373 4.898 18.312 1.946l60.621-30.31 60.638 30.31c2.406 1.212 5.035 1.809 7.629 1.809 3.806 0 7.578-1.263 10.684-3.755 5.205-4.164 7.475-10.991 5.871-17.442l-14.711-58.897 44.373-44.373c4.352-4.352 6.025-10.701 4.386-16.623zM329.27 192.503c-4.233 4.233-5.956 10.376-4.489 16.196l8.072 32.273-35.089-17.527c-2.389-1.212-5.018-1.809-7.629-1.809s-5.239 0.597-7.629 1.792l-35.089 17.527 8.072-32.273c1.468-5.82-0.256-11.964-4.489-16.196l-29.884-29.884 39.014-9.762c4.113-1.024 7.714-3.55 10.069-7.083l19.934-29.884 19.934 29.901c2.355 3.533 5.956 6.059 10.069 7.083l39.014 9.762-29.884 29.884z",
          "M1006.319 336.545c-1.655-5.939-6.349-10.513-12.322-11.998l-61.866-15.462-30.464-45.721c-6.332-9.506-22.067-9.506-28.399 0l-30.464 45.721-61.866 15.462c-5.973 1.485-10.667 6.059-12.322 11.998-1.638 5.922 0.034 12.271 4.386 16.623l44.373 44.373-14.711 58.897c-1.621 6.468 0.666 13.278 5.871 17.442 5.222 4.181 12.373 4.898 18.312 1.946l60.621-30.31 60.638 30.31c2.406 1.212 5.035 1.809 7.629 1.809 3.806 0 7.578-1.263 10.684-3.755 5.205-4.164 7.475-10.991 5.871-17.442l-14.711-58.897 44.373-44.373c4.335-4.352 6.007-10.701 4.369-16.623zM926.601 380.235c-4.233 4.233-5.956 10.376-4.489 16.196l8.072 32.273-35.089-17.527c-2.389-1.212-5.018-1.809-7.629-1.809s-5.239 0.597-7.629 1.792l-35.089 17.527 8.072-32.273c1.468-5.82-0.256-11.964-4.489-16.196l-29.884-29.884 39.014-9.762c4.113-1.024 7.714-3.55 10.069-7.083l19.934-29.884 19.934 29.901c2.355 3.533 5.956 6.059 10.069 7.083l39.014 9.762-29.884 29.884z",
          "M238.339 336.545c-1.655-5.939-6.349-10.513-12.322-11.998l-61.866-15.462-30.481-45.721c-6.332-9.506-22.067-9.506-28.399 0l-30.464 45.721-61.866 15.462c-5.973 1.485-10.667 6.059-12.322 11.998-1.638 5.922 0.034 12.271 4.386 16.623l44.373 44.373-14.728 58.897c-1.621 6.468 0.666 13.278 5.871 17.442 5.222 4.181 12.373 4.898 18.312 1.946l60.638-30.31 60.638 30.31c2.406 1.212 5.035 1.809 7.629 1.809 3.806 0 7.578-1.263 10.684-3.755 5.205-4.164 7.475-10.991 5.871-17.442l-14.711-58.897 44.373-44.373c4.352-4.352 6.025-10.701 4.386-16.623zM158.604 380.235c-4.233 4.233-5.956 10.376-4.489 16.196l8.072 32.273-35.089-17.527c-2.389-1.212-5.018-1.809-7.629-1.809s-5.239 0.597-7.629 1.792l-35.089 17.527 8.072-32.273c1.468-5.82-0.256-11.964-4.489-16.196l-29.884-29.884 39.014-9.762c4.113-1.024 7.714-3.55 10.069-7.083l19.934-29.884 19.934 29.901c2.355 3.533 5.956 6.059 10.069 7.083l39.014 9.762-29.884 29.884z",
          "M580.269 443.501h34.133c0-47.053 38.28-85.333 85.333-85.333v-34.133c-65.86 0-119.466 53.606-119.466 119.466z",
          "M324.27 324.035v34.133c47.053 0 85.333 38.28 85.333 85.333h34.133c0-65.86-53.606-119.466-119.466-119.466z",
          "M494.936 238.702h34.133v204.799h-34.133v-204.799z"
        ],
        "attrs": [
          {},
          {},
          {},
          {},
          {},
          {},
          {},
          {},
          {},
          {},
          {},
          {},
          {},
          {},
          {},
          {},
          {}
        ],
        "isMulticolor": false,
        "isMulticolor2": false,
        "grid": 0,
        "tags": [
          "hotel"
        ]
      },
      "attrs": [
        {},
        {},
        {},
        {},
        {},
        {},
        {},
        {},
        {},
        {},
        {},
        {},
        {},
        {},
        {},
        {},
        {}
      ],
      "properties": {
        "order": 7,
        "id": 8,
        "name": "hotel",
        "prevSize": 32,
        "code": 59653
      },
      "setIdx": 0,
      "setId": 10,
      "iconIdx": 10
    },
    {
      "icon": {
        "paths": [
          "M947.2 0h-870.4c-42.342 0-76.8 34.458-76.8 76.8v870.4c0 42.342 34.458 76.8 76.8 76.8h870.4c42.342 0 76.8-34.458 76.8-76.8v-870.4c0-42.342-34.458-76.8-76.8-76.8zM989.866 947.2c0 23.518-19.132 42.666-42.666 42.666h-870.4c-23.518 0-42.666-19.148-42.666-42.666v-870.4c0-23.518 19.148-42.666 42.666-42.666h870.4c23.518 0 42.666 19.148 42.666 42.666v870.4z",
          "M153.6 68.266h-68.266c-9.42 0-17.066 7.646-17.066 17.066v68.268c0 9.42 7.646 17.066 17.066 17.066h68.266c9.42 0 17.066-7.646 17.066-17.066v-68.266c0-9.422-7.646-17.068-17.066-17.068zM136.534 136.534h-34.134v-34.134h34.134v34.134z",
          "M290.134 68.266h-68.266c-9.42 0-17.066 7.646-17.066 17.066v68.268c0 9.42 7.646 17.066 17.066 17.066h68.266c9.42 0 17.066-7.646 17.066-17.066v-68.266c0-9.422-7.646-17.068-17.066-17.068zM273.066 136.534h-34.134v-34.134h34.134v34.134z",
          "M426.666 68.266h-68.266c-9.42 0-17.066 7.646-17.066 17.066v68.268c0 9.42 7.646 17.066 17.066 17.066h68.266c9.42 0 17.066-7.646 17.066-17.066v-68.266c0.002-9.422-7.644-17.068-17.066-17.068zM409.6 136.534h-34.134v-34.134h34.134v34.134z",
          "M947.2 0h-870.4c-42.342 0-76.8 34.458-76.8 76.8v145.066c0 9.42 7.646 17.066 17.066 17.066h989.866c9.42 0 17.066-7.646 17.066-17.066v-145.066c0.002-42.342-34.456-76.8-76.798-76.8zM989.866 204.8h-955.732v-128c0-23.518 19.148-42.666 42.666-42.666h870.4c23.518 0 42.666 19.148 42.666 42.666v128z",
          "M477.866 648.534h-375.466c-9.42 0-17.066 7.646-17.066 17.066s7.646 17.066 17.066 17.066h375.466c9.42 0 17.066-7.646 17.066-17.066 0.002-9.42-7.644-17.066-17.066-17.066z",
          "M477.866 716.8h-375.466c-9.42 0-17.066 7.646-17.066 17.066s7.646 17.066 17.066 17.066h375.466c9.42 0 17.066-7.646 17.066-17.066s-7.644-17.066-17.066-17.066z",
          "M375.466 580.266h-273.066c-9.42 0-17.066 7.646-17.066 17.066s7.646 17.068 17.066 17.068h273.066c9.42 0 17.066-7.646 17.066-17.066s-7.644-17.068-17.066-17.068z",
          "M477.866 785.066h-375.466c-9.42 0-17.066 7.646-17.066 17.066s7.646 17.068 17.066 17.068h375.466c9.42 0 17.066-7.646 17.066-17.066s-7.644-17.068-17.066-17.068z",
          "M477.866 853.334h-375.466c-9.42 0-17.066 7.646-17.066 17.066s7.646 17.066 17.066 17.066h375.466c9.42 0 17.066-7.646 17.066-17.066s-7.644-17.066-17.066-17.066z",
          "M477.866 921.6h-375.466c-9.42 0-17.066 7.646-17.066 17.066s7.646 17.066 17.066 17.066h375.466c9.42 0 17.066-7.646 17.066-17.066s-7.644-17.066-17.066-17.066z",
          "M921.6 580.266h-358.4c-9.42 0-17.066 7.646-17.066 17.066v341.334c0 9.42 7.646 17.066 17.066 17.066h358.4c9.42 0 17.066-7.646 17.066-17.066v-341.332c0-9.422-7.646-17.068-17.066-17.068zM904.534 921.6h-324.268v-307.2h324.266v307.2z",
          "M711.8 738.868c-6.674-6.672-17.46-6.672-24.132 0l-68.268 68.266c-6.672 6.674-6.672 17.46 0 24.132 3.328 3.328 7.698 5 12.066 5 4.37 0 8.738-1.672 12.066-5l68.268-68.266c6.672-6.674 6.672-17.46 0-24.132z",
          "M780.066 807.134l-68.266-68.266c-6.674-6.672-17.46-6.674-24.132 0-6.674 6.674-6.674 17.46 0 24.132l68.266 68.266c3.328 3.328 7.698 5 12.066 5 4.37 0 8.738-1.672 12.066-5 6.674-6.672 6.674-17.46 0-24.132z",
          "M797.132 704.734c-6.674-6.674-17.46-6.674-24.132 0l-59.734 59.734c-6.672 6.674-6.672 17.46 0 24.132 3.328 3.328 7.698 5 12.066 5s8.738-1.672 12.066-5l59.734-59.734c6.674-6.672 6.674-17.46-0-24.132z",
          "M865.4 773l-68.266-68.266c-6.674-6.674-17.46-6.674-24.132 0-6.674 6.674-6.674 17.46 0 24.132l68.266 68.266c3.328 3.328 7.698 5 12.066 5s8.738-1.672 12.066-5c6.672-6.672 6.672-17.458-0-24.132z",
          "M921.6 273.066h-819.2c-9.42 0-17.066 7.646-17.066 17.066v238.934c0 9.42 7.646 17.066 17.066 17.066h819.2c9.42 0 17.066-7.646 17.066-17.066v-238.932c0-9.422-7.646-17.068-17.066-17.068zM904.534 512h-785.068v-204.8h785.066v204.8z",
          "M699.734 358.4h-409.6c-9.42 0-17.066 7.646-17.066 17.066s7.646 17.066 17.066 17.066h409.6c9.42 0 17.066-7.646 17.066-17.066s-7.646-17.066-17.066-17.066z",
          "M785.066 426.666h-546.132c-9.42 0-17.066 7.646-17.066 17.066s7.646 17.066 17.066 17.066h546.134c9.42 0 17.066-7.646 17.066-17.066s-7.646-17.066-17.068-17.066z"
        ],
        "attrs": [
          {},
          {},
          {},
          {},
          {},
          {},
          {},
          {},
          {},
          {},
          {},
          {},
          {},
          {},
          {},
          {},
          {},
          {},
          {}
        ],
        "isMulticolor": false,
        "isMulticolor2": false,
        "grid": 0,
        "tags": [
          "page"
        ]
      },
      "attrs": [
        {},
        {},
        {},
        {},
        {},
        {},
        {},
        {},
        {},
        {},
        {},
        {},
        {},
        {},
        {},
        {},
        {},
        {},
        {}
      ],
      "properties": {
        "order": 8,
        "id": 7,
        "name": "page",
        "prevSize": 32,
        "code": 59654
      },
      "setIdx": 0,
      "setId": 10,
      "iconIdx": 11
    },
    {
      "icon": {
        "paths": [
          "M996.818 351.412l-324.252-324.248c-17.504-17.502-40.846-27.142-65.73-27.142-24.882 0-48.226 9.636-65.73 27.138l-513.964 513.966c-17.502 17.504-27.142 40.844-27.142 65.728s9.64 48.228 27.142 65.728l39.984 39.984c0.004 0.002 0.006 0.006 0.010 0.010s0.008 0.008 0.012 0.012l268.72 268.72h-37.208c-11.78 0-21.332 9.55-21.332 21.332 0 11.78 9.552 21.332 21.332 21.332h118.378c0.028 0 0.054 0.002 0.082 0.002s0.054-0.002 0.082-0.002l308.106 0.004c11.78 0 21.332-9.552 21.332-21.332 0-11.782-9.552-21.332-21.332-21.332l-226.928-0.004 498.44-498.44c36.24-36.244 36.24-95.216-0.002-131.456zM966.65 452.7l-513.968 513.968c-9.426 9.424-22.026 14.62-35.484 14.64h-0.162c-13.454-0.022-26.050-5.216-35.472-14.64l-269.174-269.176 493.59-493.594c8.33-8.33 8.33-21.838 0-30.168-8.332-8.33-21.836-8.33-30.17 0.002l-493.59 493.594-24.912-24.912c-9.442-9.442-14.642-22.070-14.642-35.558s5.2-26.118 14.644-35.562l513.964-513.964c9.444-9.442 22.074-14.642 35.562-14.642s26.118 5.2 35.562 14.644l115.406 115.404-493.596 493.6c-8.33 8.328-8.33 21.836 0 30.17 4.166 4.164 9.626 6.246 15.084 6.246s10.918-2.084 15.084-6.248l493.596-493.598 178.678 178.672c19.606 19.608 19.604 51.514-0 71.122z",
          "M525.602 616.128c-8.33-8.33-21.834-8.328-30.17 0l-167.868 167.866c-8.33 8.33-8.33 21.836 0 30.17 4.166 4.166 9.626 6.248 15.084 6.248s10.918-2.084 15.084-6.248l167.868-167.866c8.332-8.334 8.332-21.84 0.002-30.17z",
          "M456.75 775.482l-68.85 68.85c-8.33 8.33-8.33 21.838 0 30.17 4.166 4.164 9.626 6.248 15.084 6.248 5.462 0 10.918-2.084 15.084-6.248l68.85-68.85c8.33-8.33 8.33-21.838 0-30.17s-21.832-8.332-30.168 0z",
          "M520.108 712.13l-9.050 9.048c-8.332 8.33-8.332 21.836-0.002 30.17 4.164 4.166 9.626 6.25 15.084 6.25s10.918-2.084 15.082-6.25l9.050-9.048c8.332-8.33 8.332-21.836 0.002-30.168-8.326-8.33-21.836-8.332-30.166-0.002z",
          "M814.146 327.586c-4-4-9.426-6.248-15.084-6.248s-11.082 2.248-15.084 6.248l-90.51 90.508c-4 4.002-6.248 9.426-6.248 15.084s2.248 11.084 6.248 15.084l60.34 60.334c4.166 4.166 9.626 6.248 15.084 6.248 5.462 0 10.918-2.084 15.084-6.248l90.506-90.504c8.33-8.33 8.33-21.838 0-30.168l-60.336-60.338zM768.89 463.346l-30.17-30.168 60.34-60.338 30.168 30.17-60.338 60.336z",
          "M640.678 160.372c5.462 0 10.922-2.084 15.086-6.252l9.050-9.054c8.328-8.332 8.326-21.84-0.006-30.168-8.33-8.328-21.84-8.326-30.168 0.006l-9.050 9.054c-8.328 8.332-8.326 21.84 0.006 30.168 4.166 4.166 9.622 6.246 15.082 6.246z",
          "M214.43 716.114l-9.050 9.050c-8.33 8.328-8.33 21.836 0 30.17 4.166 4.164 9.626 6.246 15.084 6.246s10.918-2.082 15.084-6.246l9.050-9.050c8.33-8.332 8.33-21.84 0-30.17-8.332-8.332-21.836-8.332-30.168 0z"
        ],
        "attrs": [
          {},
          {},
          {},
          {},
          {},
          {},
          {}
        ],
        "isMulticolor": false,
        "isMulticolor2": false,
        "grid": 0,
        "tags": [
          "payment"
        ]
      },
      "attrs": [
        {},
        {},
        {},
        {},
        {},
        {},
        {}
      ],
      "properties": {
        "order": 9,
        "id": 6,
        "name": "payment",
        "prevSize": 32,
        "code": 59655
      },
      "setIdx": 0,
      "setId": 10,
      "iconIdx": 12
    },
    {
      "icon": {
        "paths": [
          "M1002.666 405.334c11.792 0 21.334-9.542 21.334-21.334v-170.666c0-47.064-38.27-85.334-85.334-85.334h-853.332c-47.064 0-85.334 38.27-85.334 85.334v170.666c0 11.792 9.542 21.334 21.334 21.334 58.812 0 106.666 47.854 106.666 106.666s-47.854 106.666-106.666 106.666c-11.792 0-21.334 9.542-21.334 21.334v170.666c0 47.064 38.27 85.334 85.334 85.334h853.334c47.062 0 85.332-38.27 85.332-85.334v-170.666c0-11.792-9.542-21.334-21.334-21.334-58.812 0-106.666-47.854-106.666-106.666s47.854-106.666 106.666-106.666zM853.334 512c0 75.104 55.73 137.438 128 147.812v150.854c0 23.52-19.146 42.666-42.666 42.666h-853.334c-23.52 0-42.666-19.146-42.666-42.666v-150.854c72.27-10.376 128-72.708 128-147.812s-55.73-137.438-128-147.812v-150.854c0-23.52 19.146-42.666 42.666-42.666h853.334c23.52 0 42.666 19.146 42.666 42.666v150.854c-72.272 10.374-128 72.708-128 147.812z",
          "M277.334 208c-11.792 0-21.334 9.542-21.334 21.334v48c0 11.792 9.542 21.334 21.334 21.334s21.334-9.542 21.334-21.334v-48c-0.002-11.792-9.542-21.334-21.334-21.334z",
          "M277.334 384c-11.792 0-21.334 9.542-21.334 21.334v42.666c0 11.792 9.542 21.334 21.334 21.334s21.334-9.542 21.334-21.334v-42.666c-0.002-11.792-9.542-21.334-21.334-21.334z",
          "M277.334 554.666c-11.792 0-21.334 9.542-21.334 21.334v42.666c0 11.792 9.542 21.334 21.334 21.334s21.334-9.542 21.334-21.334v-42.666c-0.002-11.792-9.542-21.334-21.334-21.334z",
          "M277.334 725.334c-11.792 0-21.334 9.542-21.334 21.334v42.666c0 11.792 9.542 21.334 21.334 21.334s21.334-9.542 21.334-21.334v-42.666c-0.002-11.792-9.542-21.334-21.334-21.334z",
          "M715.834 302.25c-9.876-6.542-23.062-3.896-29.584 5.916l-256 384c-6.542 9.812-3.896 23.042 5.916 29.584 3.646 2.416 7.75 3.584 11.812 3.584 6.896 0 13.666-3.334 17.77-9.5l256-384c6.544-9.814 3.898-23.042-5.914-29.584z",
          "M554.666 405.334c0-58.812-38.27-106.666-85.334-106.666s-85.332 47.852-85.332 106.666 38.27 106.666 85.334 106.666 85.332-47.854 85.332-106.666zM426.666 405.334c0-34.688 19.542-64 42.666-64s42.666 29.312 42.666 64-19.542 64-42.666 64-42.666-29.314-42.666-64z",
          "M682.666 512c-47.062 0-85.334 47.854-85.334 106.666s38.27 106.666 85.334 106.666c47.062 0 85.334-47.854 85.334-106.666s-38.27-106.666-85.334-106.666zM682.666 682.666c-23.126 0-42.666-29.312-42.666-64s19.542-64 42.666-64c23.126 0 42.666 29.312 42.666 64s-19.54 64-42.666 64z"
        ],
        "attrs": [
          {},
          {},
          {},
          {},
          {},
          {},
          {},
          {}
        ],
        "isMulticolor": false,
        "isMulticolor2": false,
        "grid": 0,
        "tags": [
          "rate"
        ]
      },
      "attrs": [
        {},
        {},
        {},
        {},
        {},
        {},
        {},
        {}
      ],
      "properties": {
        "order": 10,
        "id": 5,
        "name": "rate",
        "prevSize": 32,
        "code": 59656
      },
      "setIdx": 0,
      "setId": 10,
      "iconIdx": 13
    },
    {
      "icon": {
        "paths": [
          "M955.733 0c-37.649 0-68.267 30.652-68.267 68.318v30.925c-247.62-41.114-503.262-41.114-750.933 0v-30.976c0-37.649-30.618-68.267-68.267-68.267s-68.267 30.618-68.267 68.267v921.6c0 18.825 15.309 34.133 34.133 34.133h51.2c18.825 0 34.133-15.309 34.133-34.133v-68.267h785.067v68.267c0 18.825 15.309 34.133 34.133 34.133h51.2c18.825 0 34.133-15.309 34.133-34.133v-921.6c0-37.649-30.618-68.267-68.267-68.267zM85.333 989.867h-51.2v-68.267h51.2v68.267zM989.867 989.867h-51.2v-68.267h51.2v68.267zM989.867 887.467h-955.733v-85.333c0-28.228 22.972-51.2 51.2-51.2h853.333c28.228 0 51.2 22.972 51.2 51.2v85.333zM989.867 733.901c-0.649-0.495-1.417-0.853-2.082-1.331-1.417-1.007-2.918-1.877-4.403-2.799-2.867-1.775-5.803-3.396-8.875-4.83-1.673-0.785-3.345-1.519-5.086-2.202-3.277-1.28-6.656-2.287-10.121-3.14-1.621-0.41-3.174-0.905-4.813-1.212-5.137-0.956-10.394-1.587-15.821-1.587h-853.333c-5.427 0-10.684 0.631-15.821 1.604-1.655 0.307-3.209 0.802-4.83 1.212-3.465 0.87-6.844 1.877-10.121 3.14-1.741 0.683-3.413 1.417-5.086 2.202-3.072 1.434-6.007 3.055-8.875 4.83-1.485 0.922-2.987 1.792-4.403 2.799-0.649 0.478-1.417 0.836-2.065 1.314v-153.634h955.733v153.634zM989.867 546.133h-955.733v-170.667h955.733v170.667zM238.933 341.333v-119.467c0-9.404 7.663-17.067 17.067-17.067h170.667c9.404 0 17.067 7.663 17.067 17.067v119.467h-204.8zM580.267 341.333v-119.467c0-9.404 7.663-17.067 17.067-17.067h170.667c9.404 0 17.067 7.663 17.067 17.067v119.467h-204.8zM989.867 341.333h-170.667v-119.467c0-28.228-22.972-51.2-51.2-51.2h-170.667c-28.228 0-51.2 22.972-51.2 51.2v119.467h-68.267v-119.467c0-28.228-22.972-51.2-51.2-51.2h-170.667c-28.228 0-51.2 22.972-51.2 51.2v119.467h-170.667v-273.067c0-18.825 15.309-34.133 34.133-34.133s34.133 15.309 34.133 34.133v51.2c0 5.035 2.219 9.83 6.093 13.073s9.028 4.642 13.909 3.738c256.597-44.937 522.667-44.937 779.179 0 4.983 0.87 10.069-0.512 13.926-3.738 3.874-3.243 6.093-8.038 6.093-13.073v-51.149c0-18.859 15.309-34.185 34.133-34.185s34.133 15.309 34.133 34.133v273.067z"
        ],
        "attrs": [
          {}
        ],
        "isMulticolor": false,
        "isMulticolor2": false,
        "grid": 0,
        "tags": [
          "room"
        ]
      },
      "attrs": [
        {}
      ],
      "properties": {
        "order": 11,
        "id": 4,
        "name": "room",
        "prevSize": 32,
        "code": 59657
      },
      "setIdx": 0,
      "setId": 10,
      "iconIdx": 14
    },
    {
      "icon": {
        "paths": [
          "M512 246.519c-146.394 0-265.481 119.087-265.481 265.481s119.087 265.481 265.481 265.481 265.481-119.087 265.481-265.481-119.087-265.481-265.481-265.481zM512 739.556c-125.478 0-227.556-102.078-227.556-227.556s102.078-227.556 227.556-227.556 227.556 102.078 227.556 227.556-102.078 227.556-227.556 227.556z",
          "M971.283 398.222h-38.267c-9.766-36.257-24.121-70.959-42.856-103.481l27.041-27.041c9.956-9.956 15.436-23.211 15.436-37.281 0-14.089-5.48-27.326-15.436-37.3l-86.338-86.338c-19.911-19.892-54.632-19.93-74.581 0l-27.041 27.041c-32.54-18.716-67.224-33.071-103.462-42.837v-38.267c0-29.070-23.647-52.717-52.717-52.717h-122.121c-29.070 0-52.717 23.647-52.717 52.717v38.267c-36.238 9.766-70.921 24.121-103.481 42.856l-27.041-27.041c-19.93-19.949-54.67-19.911-74.581 0l-86.338 86.338c-9.956 9.956-15.436 23.211-15.436 37.3 0 14.071 5.48 27.307 15.436 37.281l27.041 27.041c-18.716 32.503-33.090 67.205-42.837 103.462h-38.267c-29.070 0-52.717 23.647-52.717 52.717v122.103c0 29.089 23.647 52.736 52.717 52.736h38.267c9.766 36.238 24.121 70.921 42.856 103.481l-27.041 27.041c-9.956 9.956-15.436 23.211-15.436 37.281 0 14.089 5.48 27.326 15.436 37.3l86.338 86.338c19.911 19.93 54.651 19.949 74.581 0l27.041-27.041c32.559 18.716 67.243 33.090 103.481 42.856v38.267c0 29.070 23.647 52.717 52.717 52.717h122.103c29.070 0 52.717-23.647 52.717-52.717v-38.267c36.238-9.766 70.921-24.121 103.481-42.856l27.041 27.041c19.949 19.949 54.651 19.911 74.581 0l86.338-86.338c9.956-9.956 15.436-23.211 15.436-37.3 0-14.071-5.48-27.307-15.436-37.281l-27.041-27.041c18.716-32.559 33.090-67.243 42.856-103.481h38.267c29.070 0 52.717-23.647 52.717-52.717v-122.121c-0.019-29.070-23.666-52.717-52.736-52.717zM986.074 573.061c0 8.154-6.637 14.791-14.791 14.791h-68.115l-3.413 14.658c-9.88 42.42-26.529 82.679-49.55 119.675l-7.964 12.781 48.147 48.147c5.784 5.784 5.784 15.17 0 20.935l-86.338 86.338c-5.765 5.765-15.151 5.803-20.935 0l-48.147-48.147-12.781 7.964c-36.978 23.021-77.236 39.689-119.675 49.55l-14.658 3.413v68.115c0 8.154-6.637 14.791-14.791 14.791h-122.121c-8.154 0-14.791-6.637-14.791-14.791v-68.115l-14.658-3.413c-42.42-9.88-82.679-26.529-119.675-49.55l-12.781-7.964-48.147 48.147c-5.803 5.803-15.189 5.765-20.935 0l-86.338-86.338c-5.784-5.784-5.784-15.17 0-20.935l48.147-48.147-7.964-12.781c-23.021-36.978-39.689-77.236-49.55-119.675l-3.413-14.658h-68.115c-8.154 0-14.791-6.637-14.791-14.791v-122.121c0-8.154 6.637-14.791 14.791-14.791h68.115l3.413-14.658c9.88-42.439 26.529-82.697 49.55-119.675l7.964-12.781-48.147-48.147c-5.784-5.784-5.784-15.17 0-20.935l86.338-86.338c5.765-5.765 15.151-5.803 20.935 0l48.147 48.147 12.781-7.964c36.978-23.021 77.236-39.689 119.675-49.55l14.658-3.413v-68.115c0-8.154 6.637-14.791 14.791-14.791h122.103c8.173 0 14.81 6.637 14.81 14.791v68.115l14.658 3.413c42.42 9.88 82.679 26.529 119.675 49.55l12.781 7.964 48.147-48.147c5.803-5.803 15.189-5.765 20.935 0l86.338 86.338c5.784 5.784 5.784 15.17 0 20.935l-48.147 48.147 7.964 12.781c23.021 36.959 39.689 77.217 49.55 119.675l3.413 14.658h68.115c8.154 0 14.791 6.637 14.791 14.791v122.121z",
          "M512 322.37c-104.562 0-189.63 85.068-189.63 189.63s85.068 189.63 189.63 189.63 189.63-85.068 189.63-189.63-85.068-189.63-189.63-189.63zM512 663.704c-83.646 0-151.704-68.058-151.704-151.704s68.058-151.704 151.704-151.704 151.704 68.058 151.704 151.704-68.058 151.704-151.704 151.704z"
        ],
        "attrs": [
          {},
          {},
          {}
        ],
        "isMulticolor": false,
        "isMulticolor2": false,
        "grid": 0,
        "tags": [
          "setting"
        ]
      },
      "attrs": [
        {},
        {},
        {}
      ],
      "properties": {
        "order": 12,
        "id": 3,
        "name": "setting",
        "prevSize": 32,
        "code": 59658
      },
      "setIdx": 0,
      "setId": 10,
      "iconIdx": 15
    },
    {
      "icon": {
        "paths": [
          "M966.148 0h-908.296c-31.849 0-57.852 26.003-57.852 57.852 0 22.98 13.506 42.734 33.058 52.006v600.29h258.217l-99.175 313.852h100.787l41.726-132.031h364.85l48.781 132.031h101.191l-115.704-313.852h257.008v-600.29c19.754-9.272 33.26-29.027 33.26-52.006 0-31.849-26.003-57.852-57.852-57.852zM268.699 990.942h-31.446l88.693-280.794h31.446l-88.693 280.794zM345.096 858.91v0l46.967-148.561h240.68l54.828 148.561h-342.476zM802.066 990.942h-30.841l-103.408-280.794h30.841l103.408 280.794zM958.085 677.090h-891.969v-561.386h891.969v561.386zM966.148 82.646h-908.296c-13.707 0-24.794-11.087-24.794-24.794s11.087-24.794 24.794-24.794h908.296c13.707 0 24.794 11.087 24.794 24.794s-11.087 24.794-24.794 24.794z",
          "M280.794 346.91v-148.561h-16.529c-91.112 0-165.090 74.18-165.090 165.090s73.978 165.090 165.090 165.090c91.112 0 165.090-74.18 165.090-165.090v-16.529h-148.561zM264.265 495.471c-72.769 0-132.031-59.263-132.031-132.031-0.202-67.326 50.394-122.961 115.502-131.225v147.553h147.553c-8.063 65.109-63.899 115.704-131.024 115.704z",
          "M313.852 148.762h-16.529v181.619h181.619v-16.529c0-91.112-74.18-165.090-165.090-165.090zM330.381 297.121v-114.494c59.666 7.458 107.036 54.828 114.494 114.494h-114.494z",
          "M429.354 445.883v198.148h99.175v-198.148h-99.175zM495.471 610.973h-33.058v-132.031h33.058v132.031z",
          "M561.386 379.969v264.265h99.175v-264.265h-99.175zM627.704 611.175h-33.058v-198.148h33.058v198.148z",
          "M693.619 297.323v346.91h99.175v-346.91h-99.175zM759.735 611.175h-33.058v-280.794h33.058v280.794z",
          "M825.65 214.677v429.354h99.175v-429.354h-99.175zM891.969 611.175h-33.058v-363.439h33.058v363.439z"
        ],
        "attrs": [
          {},
          {},
          {},
          {},
          {},
          {},
          {}
        ],
        "isMulticolor": false,
        "isMulticolor2": false,
        "grid": 0,
        "tags": [
          "statistic"
        ]
      },
      "attrs": [
        {},
        {},
        {},
        {},
        {},
        {},
        {}
      ],
      "properties": {
        "order": 13,
        "id": 2,
        "name": "statistic",
        "prevSize": 32,
        "code": 59659
      },
      "setIdx": 0,
      "setId": 10,
      "iconIdx": 16
    },
    {
      "icon": {
        "paths": [
          "M804.333 179.849c-0.032-0.042-0.060-0.088-0.092-0.13-1.12-1.514-2.288-2.998-3.478-4.47-0.188-0.232-0.362-0.474-0.552-0.704-1.378-1.678-2.8-3.33-4.272-4.948-23.030-25.348-54.548-40.21-88.755-41.85-34.214-1.646-67.004 10.14-92.353 33.168s-40.21 54.548-41.85 88.755c-1.64 34.208 10.138 67.004 33.168 92.353 1.52 1.676 3.084 3.3 4.68 4.882 0.396 0.392 0.806 0.76 1.206 1.146 1.234 1.194 2.478 2.372 3.752 3.512 0.386 0.344 0.78 0.67 1.168 1.008 1.342 1.17 2.698 2.318 4.080 3.428 0.284 0.226 0.572 0.444 0.858 0.67 1.542 1.214 3.104 2.394 4.694 3.532 0.124 0.090 0.25 0.176 0.376 0.264 19.764 14.050 43.136 22.222 67.938 23.41 2.102 0.102 4.194 0.15 6.286 0.15 27.8 0 54.41-8.886 76.532-25.456 0.020-0.016 0.040-0.028 0.060-0.044 1.42-1.066 2.816-2.172 4.2-3.3 0.212-0.172 0.43-0.332 0.64-0.506 1.57-1.298 3.116-2.634 4.634-4.014 1.62-1.47 3.192-2.978 4.726-4.516 0.212-0.214 0.41-0.438 0.62-0.652 1.326-1.35 2.63-2.718 3.89-4.116 0.030-0.032 0.056-0.066 0.086-0.1 19.652-21.874 31.104-49.602 32.53-79.37 1.428-29.762-7.314-58.45-24.774-82.1zM766.734 314.684c-0.008 0.008-0.016 0.018-0.024 0.028-0.874 0.974-1.786 1.926-2.71 2.868-0.134 0.136-0.258 0.278-0.394 0.414-1.052 1.058-2.136 2.094-3.252 3.11-1.116 1.014-2.252 1.994-3.406 2.94-0.152 0.124-0.31 0.238-0.462 0.362-1.022 0.828-2.054 1.64-3.104 2.416-0.006 0.004-0.010 0.008-0.016 0.012-33.476 24.704-80.070 22.504-111.073-5.216-0.054-0.048-0.11-0.094-0.164-0.142-0.936-0.842-1.852-1.718-2.758-2.606-0.17-0.166-0.348-0.322-0.516-0.49-1.056-1.050-2.092-2.132-3.104-3.248-1.98-2.18-3.84-4.44-5.576-6.772-11.282-15.158-17.33-33.358-17.348-52.368-0.002-1.462 0.034-2.928 0.104-4.4 0.846-17.652 6.81-34.264 17.096-48.15 3.43-4.634 7.338-8.96 11.698-12.92 14.76-13.408 32.862-20.87 51.342-22.526 2.64-0.236 5.288-0.354 7.934-0.354 24.014 0 47.948 9.722 65.328 28.856 1.014 1.116 1.992 2.252 2.938 3.404 0.132 0.16 0.252 0.326 0.382 0.488 0.82 1.014 1.626 2.034 2.392 3.074 0.018 0.024 0.034 0.048 0.052 0.072 24.696 33.516 22.45 80.158-5.36 111.149z",
          "M942.050 210.445l-33.582-9.054c-3.24-12.374-7.588-24.424-12.996-36.030l15.618-23.812c5-7.626 4.21-17.668-1.922-24.418l-50.176-55.23c-6.13-6.748-16.054-8.496-24.12-4.248l-25.2 13.27c-11.038-6.496-22.618-11.978-34.62-16.386l-5.8-34.292c-1.568-9.266-9.376-16.192-18.764-16.64l-74.54-3.574c-9.388-0.46-17.818 5.7-20.268 14.77l-9.054 33.582c-12.372 3.24-24.424 7.588-36.030 12.996l-23.81-15.618c-7.626-5.004-17.668-4.214-24.418 1.922l-55.236 50.182c-6.748 6.13-8.496 16.052-4.248 24.122l13.27 25.2c-2.42 4.112-4.65 8.322-6.786 12.578l-28.466-31.332c-6.13-6.75-16.054-8.492-24.122-4.248l-25.2 13.27c-11.036-6.496-22.616-11.976-34.62-16.384l-5.8-34.292c-1.568-9.266-9.376-16.192-18.764-16.64l-74.54-3.574c-9.378-0.426-17.818 5.696-20.268 14.77l-9.054 33.58c-12.372 3.24-24.422 7.588-36.030 12.998l-23.812-15.618c-7.626-5.002-17.666-4.214-24.418 1.922l-55.23 50.172c-6.748 6.13-8.496 16.052-4.248 24.122l13.27 25.2c-6.496 11.038-11.978 22.618-16.386 34.62l-34.292 5.8c-9.266 1.568-16.192 9.376-16.64 18.764l-3.574 74.54c-0.456 9.386 5.692 17.82 14.766 20.268l33.582 9.054c3.24 12.374 7.588 24.424 12.998 36.030l-15.62 23.812c-5 7.626-4.21 17.668 1.922 24.418l50.184 55.232c6.13 6.746 16.048 8.492 24.122 4.248l25.2-13.268c11.034 6.494 22.616 11.976 34.618 16.384l5.8 34.294c1.568 9.266 9.376 16.192 18.764 16.64l74.54 3.574c0.322 0.016 0.644 0.024 0.964 0.024 8.994 0 16.94-6.034 19.302-14.792l9.054-33.582c12.372-3.24 24.424-7.588 36.030-12.998l23.812 15.62c7.624 5 17.666 4.212 24.418-1.922l55.238-50.182c6.748-6.13 8.496-16.052 4.248-24.122l-13.272-25.204c2.412-4.104 4.668-8.3 6.802-12.558l28.45 31.314c6.13 6.746 16.050 8.492 24.12 4.248l25.2-13.268c11.034 6.492 22.614 11.974 34.62 16.384l5.8 34.292c1.568 9.266 9.376 16.192 18.764 16.64l74.54 3.574c0.322 0.016 0.644 0.024 0.964 0.024 8.994 0 16.94-6.032 19.302-14.792l9.054-33.582c12.374-3.24 24.424-7.588 36.030-12.996l23.812 15.618c7.624 5 17.666 4.21 24.418-1.922l55.236-50.182c6.748-6.132 8.496-16.052 4.248-24.122l-13.27-25.2c6.496-11.036 11.976-22.616 16.386-34.62l34.294-5.8c9.266-1.568 16.192-9.376 16.64-18.764l3.574-74.542c0.442-9.384-5.706-17.816-14.778-20.264zM493.983 365.486c-1.184 1.36-2.19 2.882-2.976 4.538l-0.022 0.034c-0.006 0.008-0.010 0.018-0.016 0.028-0.41 0.628-0.768 1.274-1.1 1.93-0.088 0.172-0.172 0.346-0.254 0.52-0.314 0.666-0.602 1.34-0.838 2.028-0.004 0.010-0.006 0.020-0.010 0.030-0.234 0.688-0.416 1.388-0.572 2.092-0.040 0.18-0.078 0.36-0.112 0.54-0.138 0.71-0.25 1.424-0.31 2.14 0 0.004-0.002 0.006-0.002 0.008-4.846 14.036-11.44 27.352-19.632 39.63-4.068 6.098-4.474 13.932-1.060 20.418l11.414 21.676-32.306 29.35-20.484-13.436c-6.126-4.016-13.968-4.364-20.428-0.896-15.096 8.104-31.252 13.91-48.024 17.26-7.452 1.488-13.414 7.070-15.392 14.406l-7.984 29.616-42.388-2.034-5.116-30.242c-1.268-7.492-6.672-13.618-13.946-15.812-16.366-4.936-31.892-12.262-46.148-21.776-6.096-4.064-13.93-4.472-20.42-1.060l-21.676 11.414-29.34-32.306 13.436-20.482c4.020-6.13 4.366-13.968 0.896-20.428-8.104-15.096-13.91-31.252-17.26-48.024-1.49-7.452-7.070-13.414-14.406-15.392l-29.616-7.984 2.034-42.39 30.242-5.116c7.492-1.268 13.618-6.672 15.812-13.946 4.936-16.366 12.262-31.892 21.776-46.152 4.068-6.098 4.474-13.932 1.060-20.418l-11.412-21.67 32.306-29.352 20.482 13.434c6.128 4.018 13.962 4.364 20.428 0.898 15.102-8.106 31.258-13.912 48.022-17.26 7.452-1.488 13.416-7.070 15.394-14.406l7.984-29.616 42.388 2.034 5.116 30.242c1.268 7.492 6.672 13.618 13.946 15.812 16.368 4.936 31.896 12.262 46.15 21.776 6.098 4.066 13.932 4.472 20.42 1.060l21.676-11.414 16.888 18.59-13.126 2.22c-9.266 1.568-16.192 9.376-16.64 18.764l-3.574 74.54c-0.052 1.070-0.006 2.126 0.108 3.164-2.118-6.79-4.824-13.384-8.062-19.74-0.114-0.226-0.226-0.454-0.342-0.68-0.608-1.178-1.236-2.344-1.882-3.504-0.266-0.48-0.54-0.954-0.812-1.428-0.6-1.044-1.198-2.088-1.828-3.116-0.47-0.768-0.964-1.52-1.45-2.28-0.81-1.262-1.638-2.512-2.494-3.75-0.654-0.948-1.314-1.89-1.994-2.82-0.45-0.614-0.912-1.222-1.372-1.83-0.758-0.998-1.532-1.986-2.322-2.964-0.406-0.502-0.806-1.008-1.22-1.506-1.218-1.464-2.458-2.912-3.744-4.328-1.286-1.414-2.606-2.788-3.946-4.138-0.438-0.442-0.884-0.874-1.328-1.308-0.926-0.906-1.862-1.798-2.812-2.674-0.52-0.48-1.040-0.962-1.566-1.432-0.988-0.882-1.994-1.742-3.008-2.592-0.888-0.746-1.788-1.474-2.696-2.196-0.848-0.674-1.698-1.348-2.562-1.998-0.846-0.638-1.706-1.254-2.568-1.872-0.568-0.406-1.14-0.81-1.714-1.206-0.974-0.674-1.954-1.338-2.946-1.984-0.294-0.192-0.594-0.374-0.89-0.562-3.708-2.368-7.528-4.536-11.448-6.502-0.104-0.052-0.21-0.106-0.314-0.158-5.594-2.784-11.386-5.15-17.346-7.082-0.042-0.014-0.086-0.028-0.128-0.042-1.464-0.472-2.936-0.922-4.418-1.342-0.116-0.034-0.234-0.064-0.352-0.096-3.888-1.090-7.838-2-11.844-2.724-1.126-0.204-2.252-0.406-3.386-0.58-0.8-0.122-1.606-0.226-2.41-0.332-1.152-0.156-2.306-0.298-3.464-0.422-0.68-0.072-1.36-0.146-2.042-0.208-1.856-0.17-3.712-0.314-5.57-0.402-2.046-0.098-4.108-0.146-6.174-0.146-20.372-0.020-40.116 4.77-57.938 13.836-0.3 0.152-0.6 0.3-0.898 0.454-1.254 0.65-2.494 1.326-3.728 2.020-0.552 0.31-1.102 0.62-1.648 0.938-1.052 0.612-2.096 1.236-3.132 1.88-0.724 0.448-1.44 0.908-2.156 1.37-0.89 0.576-1.776 1.156-2.652 1.756-0.86 0.588-1.708 1.196-2.554 1.806-0.74 0.534-1.486 1.062-2.218 1.612-1.010 0.76-2.002 1.55-2.992 2.342-0.566 0.452-1.14 0.89-1.698 1.352-1.53 1.266-3.036 2.564-4.514 3.904-0.018 0.016-0.036 0.030-0.052 0.046-1.854 1.684-3.636 3.428-5.376 5.202-0.446 0.454-0.876 0.922-1.316 1.384-1.354 1.42-2.672 2.864-3.952 4.336-0.378 0.434-0.756 0.868-1.128 1.308-1.546 1.824-3.044 3.68-4.478 5.58-0.040 0.052-0.082 0.104-0.122 0.156-15.326 20.348-24.232 44.788-25.478 70.788-1.084 22.612 3.73 44.592 13.746 64.228 0.096 0.186 0.188 0.376 0.284 0.562 0.624 1.208 1.266 2.404 1.93 3.592 0.242 0.436 0.492 0.868 0.74 1.3 0.62 1.080 1.238 2.158 1.89 3.222 0.384 0.628 0.792 1.244 1.186 1.866 0.904 1.418 1.83 2.822 2.792 4.21 0.634 0.916 1.272 1.83 1.93 2.732 0.46 0.628 0.93 1.248 1.402 1.868 0.75 0.986 1.514 1.962 2.292 2.928 0.412 0.51 0.818 1.020 1.236 1.526 1.216 1.464 2.456 2.908 3.738 4.322 1.254 1.38 2.546 2.72 3.856 4.042 0.424 0.43 0.854 0.852 1.284 1.274 0.934 0.918 1.884 1.818 2.844 2.704 0.628 0.58 1.256 1.158 1.894 1.724 0.996 0.882 2 1.752 3.022 2.602 0.848 0.71 1.712 1.398 2.576 2.084 0.402 0.318 0.806 0.632 1.212 0.946 16.162 12.498 34.982 20.876 55.168 24.522 1.142 0.208 2.284 0.412 3.432 0.59 0.784 0.12 1.574 0.22 2.362 0.326 1.174 0.158 2.35 0.302 3.528 0.428 0.664 0.070 1.326 0.142 1.992 0.204 1.862 0.17 3.724 0.316 5.584 0.404 2.042 0.098 4.102 0.148 6.164 0.148 0.006 0 0.014 0 0.020 0 0.034 0 0.068 0.002 0.102 0.002 20.542 0 40.426-4.874 58.34-14.090 0.090-0.046 0.178-0.096 0.268-0.142 1.528-0.792 3.046-1.608 4.544-2.462 0.282-0.16 0.558-0.33 0.838-0.492 1.31-0.76 2.614-1.532 3.9-2.34 0.486-0.306 0.962-0.628 1.444-0.94 1.082-0.7 2.162-1.4 3.226-2.134 0.69-0.476 1.364-0.98 2.046-1.47 0.852-0.614 1.71-1.218 2.55-1.854 0.918-0.696 1.816-1.426 2.718-2.148 0.596-0.478 1.202-0.938 1.792-1.426 1.492-1.238 2.96-2.51 4.402-3.818 1.346-1.222 2.664-2.494 3.97-3.786 0.582-0.576 1.15-1.16 1.722-1.746 0.628-0.646 1.248-1.298 1.864-1.96 0.754-0.806 1.504-1.612 2.234-2.434 0.010-0.010 0.018-0.020 0.026-0.030 18.054-20.332 29.076-45.646 31.612-72.926l0.018-0.182c0.148-1.592 0.254-3.186 0.34-4.78 0.016-0.304 0.052-0.606 0.066-0.91 0.016-0.332 0.010-0.662 0.024-0.992 0.060-1.494 0.098-2.99 0.106-4.484 0.006-0.924-0.012-1.846-0.026-2.768-0.014-0.816-0.032-1.632-0.062-2.448-0.316-9.31-1.606-18.468-3.874-27.346 2.448 5.146 7.044 9.166 12.846 10.73l33.58 9.054c3.24 12.372 7.588 24.422 13 36.030l-12.624 19.232zM411.122 320.348c0.030 1.374 0.024 2.748-0.008 4.122-0.008 0.36-0.012 0.718-0.026 1.078-0.058 1.594-0.152 3.188-0.296 4.778-0.004 0.050-0.006 0.1-0.010 0.15l-0.084 0.764c-0.246 2.444-0.602 4.91-1.050 7.312l-0.27 1.376c-1.55 7.654-4.122 15.082-7.638 22.078-0.572 1.138-1.176 2.266-1.792 3.372-1.24 2.22-2.582 4.394-3.984 6.46-1.23 1.808-2.512 3.556-3.792 5.174-0.354 0.446-0.706 0.888-1.048 1.306-1.182 1.436-2.414 2.822-3.67 4.172-0.42 0.448-0.84 0.894-1.27 1.334-0.39 0.402-0.782 0.804-1.18 1.196-0.894 0.884-1.8 1.76-2.736 2.61-1.066 0.968-2.15 1.898-3.25 2.804-0.28 0.232-0.57 0.45-0.852 0.678-0.844 0.678-1.694 1.346-2.556 1.988-0.298 0.222-0.6 0.438-0.902 0.656-0.888 0.644-1.782 1.274-2.688 1.882-0.254 0.17-0.51 0.338-0.764 0.506-1.008 0.66-2.026 1.3-3.054 1.916-0.156 0.094-0.312 0.188-0.468 0.282-22.376 13.192-49.188 15.568-73.098 7.504-0.354-0.12-0.712-0.23-1.064-0.354-1.038-0.364-2.068-0.758-3.094-1.162-0.616-0.244-1.226-0.498-1.836-0.756-0.912-0.384-1.824-0.762-2.722-1.178-1.386-0.642-2.758-1.318-4.108-2.030-0.624-0.328-1.234-0.684-1.852-1.028-0.992-0.554-1.974-1.122-2.944-1.714-0.546-0.332-1.092-0.668-1.63-1.014-1.31-0.84-2.602-1.708-3.868-2.618-0.164-0.118-0.332-0.224-0.494-0.342-1.448-1.056-2.856-2.168-4.24-3.312-0.372-0.308-0.738-0.628-1.106-0.944-1.050-0.898-2.078-1.82-3.086-2.768-0.372-0.35-0.748-0.696-1.114-1.054-1.302-1.268-2.582-2.564-3.808-3.916-1.35-1.486-2.628-3.026-3.868-4.592-0.274-0.346-0.548-0.694-0.816-1.042-1.228-1.596-2.416-3.218-3.528-4.886l-0.002-0.002c-1.138-1.71-2.202-3.466-3.216-5.248-0.14-0.246-0.282-0.492-0.42-0.74-1.016-1.826-1.978-3.682-2.862-5.578-0.778-1.672-1.496-3.364-2.162-5.072-0.038-0.098-0.076-0.198-0.116-0.296-9.45-24.482-7.432-52.362 5.434-75.208 0.078-0.138 0.154-0.276 0.232-0.412 0.89-1.558 1.824-3.096 2.814-4.606 0.010-0.014 0.018-0.030 0.028-0.044 0.986-1.5 2.024-2.97 3.104-4.41 0.126-0.166 0.258-0.328 0.386-0.494 0.898-1.18 1.828-2.336 2.786-3.47 0.3-0.356 0.606-0.708 0.912-1.058 0.846-0.97 1.716-1.922 2.606-2.856 0.324-0.34 0.642-0.686 0.972-1.022 1.196-1.22 2.42-2.416 3.688-3.568 0.996-0.906 2.012-1.784 3.042-2.64 0.33-0.274 0.672-0.532 1.006-0.802 0.702-0.566 1.406-1.134 2.122-1.678 0.452-0.342 0.914-0.664 1.372-0.998 0.608-0.442 1.212-0.888 1.828-1.312 0.56-0.386 1.13-0.754 1.698-1.126 0.518-0.34 1.034-0.686 1.56-1.014 0.676-0.422 1.364-0.828 2.050-1.232 0.418-0.246 0.836-0.498 1.258-0.738 0.802-0.454 1.614-0.89 2.43-1.318 0.308-0.162 0.612-0.328 0.922-0.486 0.926-0.472 1.864-0.926 2.808-1.366 0.2-0.094 0.4-0.19 0.602-0.282 1.032-0.472 2.076-0.922 3.128-1.354 0.11-0.046 0.22-0.092 0.33-0.136 2.82-1.144 5.876-2.184 9.112-3.1 2.556-0.722 4.896-1.288 7.162-1.726 1.408-0.274 2.928-0.522 4.628-0.76 2.738-0.378 5.434-0.634 8.002-0.758 1.406-0.066 2.82-0.1 4.23-0.1 1.42 0 2.84 0.036 4.244 0.102 0.024 0 0.046 0.004 0.070 0.004 1.252 0.060 2.496 0.158 3.738 0.27 0.494 0.044 0.988 0.098 1.482 0.152 0.774 0.082 1.542 0.178 2.312 0.282 0.564 0.076 1.13 0.146 1.692 0.234 0.848 0.13 1.692 0.282 2.534 0.436 0.264 0.048 0.532 0.088 0.796 0.14 1.388 0.27 2.77 0.57 4.152 0.906 0.864 0.21 1.722 0.444 2.578 0.68 0.28 0.078 0.562 0.152 0.842 0.232 0.882 0.252 1.758 0.52 2.63 0.798 0.23 0.074 0.458 0.15 0.688 0.226 2.872 0.948 5.686 2.038 8.43 3.268 0.126 0.056 0.254 0.11 0.38 0.168 0.844 0.384 1.68 0.784 2.51 1.194 0.26 0.128 0.518 0.26 0.776 0.39 0.81 0.41 1.618 0.826 2.416 1.262 0.086 0.046 0.168 0.096 0.254 0.144 1.512 0.832 2.992 1.714 4.452 2.634 0.386 0.244 0.774 0.482 1.158 0.732 0.596 0.39 1.186 0.79 1.772 1.194 0.492 0.338 0.98 0.682 1.464 1.030 0.52 0.374 1.040 0.748 1.554 1.132 0.734 0.552 1.458 1.12 2.176 1.696 0.448 0.36 0.894 0.724 1.336 1.092 0.764 0.638 1.52 1.286 2.264 1.95 0.346 0.308 0.684 0.624 1.024 0.938 0.668 0.616 1.326 1.242 1.978 1.88 0.298 0.292 0.6 0.584 0.894 0.882 0.92 0.928 1.828 1.87 2.71 2.842 0.002 0.002 0.006 0.006 0.008 0.008 0.008 0.008 0.016 0.018 0.024 0.026 0.882 0.97 1.73 1.962 2.564 2.964 0.274 0.328 0.538 0.662 0.806 0.994 0.57 0.704 1.126 1.416 1.672 2.134 0.286 0.378 0.572 0.754 0.852 1.136 0.56 0.762 1.102 1.534 1.634 2.312 0.214 0.312 0.438 0.618 0.648 0.934 0.672 1.004 1.314 2.024 1.94 3.052 0.312 0.514 0.61 1.034 0.912 1.554 0.33 0.566 0.654 1.134 0.97 1.708 0.334 0.604 0.662 1.212 0.98 1.824 0.24 0.46 0.472 0.926 0.702 1.39 0.342 0.684 0.686 1.368 1.008 2.062 0.612 1.31 1.186 2.63 1.728 3.962 0.654 1.606 1.256 3.232 1.812 4.874 0.018 0.050 0.034 0.102 0.050 0.152 2.746 8.166 4.276 16.75 4.554 25.384 0.006 0.286 0.014 0.574 0.020 0.862zM914.067 287.266l-30.242 5.116c-7.49 1.268-13.618 6.67-15.812 13.944-4.938 16.372-12.266 31.898-21.776 46.154-4.068 6.098-4.474 13.932-1.060 20.418l11.412 21.674-32.304 29.35-20.482-13.434c-6.128-4.016-13.962-4.364-20.428-0.898-15.096 8.104-31.254 13.91-48.024 17.26-7.452 1.488-13.414 7.070-15.392 14.406l-7.984 29.616-42.388-2.034-5.116-30.242c-1.268-7.49-6.67-13.618-13.944-15.812-16.376-4.94-31.902-12.266-46.152-21.776-6.096-4.064-13.93-4.472-20.42-1.060l-21.676 11.414-29.35-32.306 13.434-20.486c2.010-3.064 3.102-6.558 3.258-10.092s-0.626-7.108-2.36-10.336c-8.106-15.1-13.912-31.256-17.26-48.022-1.488-7.45-7.070-13.416-14.406-15.394l-29.616-7.984 2.034-42.388 29.994-5.072c0.006 0 0.012-0.002 0.018-0.004l0.23-0.038c0.218-0.036 0.422-0.11 0.636-0.154 0.464-0.1 0.926-0.202 1.378-0.334 6.556-1.824 11.804-6.852 13.798-13.456 0.062-0.206 0.134-0.408 0.198-0.612 0.002-0.004 0.002-0.006 0.004-0.010 0.098-0.318 0.204-0.634 0.306-0.952l0.328-1.014c0.004-0.012 0.006-0.026 0.010-0.040 4.912-15.396 11.928-30.034 20.93-43.526 4.068-6.098 4.474-13.932 1.060-20.418l-11.412-21.674 32.306-29.352 20.482 13.434c6.128 4.016 13.962 4.362 20.428 0.898 15.096-8.104 31.254-13.91 48.024-17.26 7.452-1.488 13.414-7.070 15.392-14.406l7.984-29.616 42.388 2.034 5.116 30.242c1.268 7.492 6.672 13.618 13.946 15.812 16.366 4.936 31.892 12.262 46.152 21.776 6.094 4.068 13.93 4.47 20.418 1.060l21.674-11.412 29.352 32.306-13.434 20.482c-4.020 6.13-4.364 13.968-0.898 20.428 8.104 15.098 13.91 31.254 17.26 48.024 1.488 7.452 7.070 13.414 14.406 15.392l29.616 7.984-2.036 42.39z",
          "M996.472 874.601c-2.010-0.008-107.573-0.412-142.707-0.412-1.996 0-5.438-2.964-7.032-5.086-0.412-0.644-0.59-0.834-1.116-1.468-18.076-21.722-38.76-49.584-44.12-60.626 5.342-11.186 26.39-39.5 44.816-61.542 0.432-0.518 0.838-1.056 1.214-1.616 0.028-0.040 3.386-3.902 9.664-3.902 36.734 0 138.227-0.376 139.175-0.38 10.596 0 19.408-4.722 24.176-12.956 4.75-8.204 4.598-18.704-0.398-27.408-38.626-67.25-110.737-109.027-188.197-109.027-88.155 0-166.915 53.122-200.335 133.609h-273.552c-30.826-62.406-95.139-105.435-169.325-105.435-104.069 0-188.735 84.666-188.735 188.735s84.666 188.737 188.737 188.737c74.184 0 138.499-43.030 169.325-105.435h273.558c33.424 80.486 112.181 133.607 200.335 133.607 77.618 0 149.807-41.906 188.383-109.359 4.682-8.18 4.652-18.732-0.076-26.886-4.764-8.22-13.654-13.134-23.79-13.15zM337.28 814.521c-0.040 0.786-0.118 1.564-0.168 2.348-0.11 1.678-0.218 3.358-0.384 5.022-0.092 0.928-0.224 1.848-0.334 2.772-0.178 1.5-0.35 3.004-0.572 4.49-0.152 1.022-0.344 2.036-0.518 3.054-0.234 1.368-0.462 2.736-0.732 4.090-0.222 1.112-0.482 2.216-0.73 3.322-0.276 1.234-0.548 2.472-0.854 3.694-0.302 1.198-0.638 2.386-0.97 3.578-0.31 1.112-0.614 2.228-0.948 3.33-0.378 1.242-0.79 2.476-1.2 3.71-0.348 1.046-0.692 2.096-1.062 3.132-0.428 1.2-0.892 2.39-1.352 3.58-21.546 55.618-75.582 95.181-138.721 95.181-82.012 0-148.735-66.724-148.735-148.737s66.722-148.735 148.737-148.735c63.122 0 117.151 39.544 138.707 95.145 0.468 1.208 0.936 2.416 1.372 3.634 0.364 1.020 0.702 2.052 1.044 3.082 0.416 1.25 0.834 2.498 1.216 3.756 0.33 1.088 0.63 2.19 0.936 3.29 0.336 1.202 0.676 2.404 0.98 3.614 0.304 1.212 0.574 2.44 0.848 3.664 0.25 1.114 0.512 2.226 0.736 3.348 0.27 1.348 0.496 2.712 0.73 4.074 0.174 1.022 0.368 2.042 0.52 3.068 0.222 1.484 0.394 2.984 0.572 4.482 0.11 0.926 0.242 1.85 0.334 2.78 0.166 1.662 0.274 3.34 0.382 5.016 0.050 0.784 0.13 1.564 0.168 2.35 0.122 2.462 0.188 4.94 0.188 7.432s-0.068 4.97-0.19 7.434zM831.953 983.996c-75.886 0-143.235-48.254-167.585-120.073-2.758-8.132-10.388-13.578-18.938-13.578-0.178 0-0.36 0.002-0.54 0.008l-0.706 0.022-271.728 0.014c0.020-0.090 0.038-0.18 0.060-0.268 0.776-3.314 1.466-6.662 2.064-10.040 0.106-0.596 0.198-1.192 0.298-1.788 0.18-1.076 0.356-2.152 0.518-3.234 0.106-0.714 0.202-1.428 0.3-2.144 0.134-0.976 0.264-1.954 0.384-2.934 0.090-0.748 0.176-1.496 0.258-2.246 0.024-0.216 0.052-0.432 0.074-0.648h174.413c11.044 0 20-8.954 20-20 0-11.044-8.956-20-20-20h-174.413c-0.024-0.218-0.052-0.436-0.076-0.654-0.082-0.744-0.166-1.488-0.256-2.232-0.12-0.986-0.25-1.97-0.386-2.952-0.098-0.708-0.192-1.418-0.298-2.126-0.164-1.094-0.342-2.182-0.524-3.268-0.098-0.584-0.188-1.17-0.292-1.752-0.6-3.388-1.29-6.742-2.068-10.066-0.020-0.084-0.036-0.168-0.056-0.25l272.434 0.036c8.784 0.256 16.662-5.266 19.478-13.57 24.35-71.818 91.697-120.073 167.585-120.073 55.326 0 107.309 26.136 140.535 69.474-32.518 0.114-89.693 0.296-115.291 0.296-24.68 0-38.364 15.582-41.956 20.326-2.272 2.732-13.758 16.626-25.418 32.24-24.232 32.444-29.102 44.934-29.102 54.57 0 5.742 0.002 20.972 53.698 85.589 3.506 4.76 17.406 21.514 39.348 21.514 24.838 0 85.032 0.204 118.727 0.324-33.224 43.348-85.192 69.482-140.541 69.482z",
          "M636.372 803.177c-0.258-1.28-0.638-2.542-1.138-3.74-0.5-1.2-1.12-2.36-1.84-3.458-0.74-1.080-1.56-2.12-2.5-3.042-0.92-0.92-1.942-1.76-3.022-2.48-1.1-0.718-2.26-1.34-3.46-1.84-1.202-0.5-2.46-0.878-3.74-1.138-2.58-0.522-5.24-0.522-7.82 0-1.28 0.26-2.54 0.638-3.74 1.138s-2.38 1.122-3.458 1.84c-1.1 0.72-2.122 1.56-3.042 2.48s-1.76 1.96-2.48 3.042c-0.718 1.1-1.34 2.26-1.84 3.458-0.5 1.2-0.878 2.46-1.138 3.74s-0.4 2.6-0.4 3.9c0 1.3 0.14 2.62 0.4 3.92 0.26 1.28 0.638 2.54 1.138 3.74s1.122 2.36 1.84 3.458c0.72 1.080 1.56 2.122 2.48 3.042s1.942 1.76 3.042 2.478c1.080 0.72 2.26 1.342 3.458 1.842 1.202 0.5 2.46 0.878 3.74 1.138s2.6 0.38 3.9 0.38c1.32 0 2.62-0.122 3.92-0.38 1.28-0.26 2.54-0.638 3.74-1.138s2.36-1.122 3.46-1.842c1.080-0.718 2.102-1.558 3.022-2.478 0.94-0.92 1.76-1.96 2.5-3.042 0.718-1.1 1.34-2.26 1.84-3.458 0.5-1.202 0.88-2.46 1.138-3.74 0.26-1.3 0.38-2.62 0.38-3.92s-0.122-2.622-0.38-3.9z",
          "M188.737 717.26c-49.534 0-89.829 40.296-89.829 89.827 0 49.534 40.296 89.829 89.829 89.829s89.827-40.296 89.827-89.829c0-49.532-40.296-89.827-89.827-89.827zM188.737 856.915c-27.476 0-49.83-22.354-49.83-49.83 0-27.474 22.354-49.828 49.83-49.828 27.474 0 49.828 22.354 49.828 49.828-0.002 27.478-22.356 49.83-49.828 49.83z"
        ],
        "attrs": [
          {},
          {},
          {},
          {},
          {}
        ],
        "isMulticolor": false,
        "isMulticolor2": false,
        "grid": 0,
        "tags": [
          "system"
        ]
      },
      "attrs": [
        {},
        {},
        {},
        {},
        {}
      ],
      "properties": {
        "order": 14,
        "id": 1,
        "name": "system",
        "prevSize": 32,
        "code": 59660
      },
      "setIdx": 0,
      "setId": 10,
      "iconIdx": 17
    },
    {
      "icon": {
        "paths": [
          "M437.527 506.001c-11.020 0-20.004 8.984-20.004 20s8.984 20.002 20.004 20.002c11.014 0 19.998-8.988 19.998-20.002s-8.984-20-19.998-20z",
          "M586.481 506.001c-11.016 0-20 8.984-20 20s8.986 20.002 20 20.002c11.016 0 20.004-8.988 20.004-20.002s-8.988-20-20.004-20z",
          "M642.001 869.884l-0.66-0.24c-10.38-3.776-21.856 1.574-25.634 11.954-3.78 10.38 1.572 21.856 11.952 25.634l0.528 0.192c2.28 0.838 4.612 1.236 6.904 1.236 8.144 0 15.796-5.010 18.774-13.098 3.812-10.368-1.496-21.864-11.864-25.678z",
          "M901.906 1001.084l-4.876-33.118c-0.050-0.336-0.108-0.67-0.174-1.004-9.308-46.614-16.518-70.628-34.634-89.71-17.99-18.948-43.942-28.902-88.262-44.868l-132.93-47.882v-50.22c51.726-33.112 89.966-85.508 104.52-146.966 41.372-6.528 73.114-42.422 73.114-85.6 0-40.902-28.494-75.252-66.668-84.306v-5.406c0-41.078-10.66-81.486-30.83-117.26v-274.743c0-11.046-8.956-20-20-20h-378.301c-11.046 0-20 8.954-20 20v274.677c-20.194 35.79-30.868 76.222-30.868 117.326v5.406c-38.174 9.054-66.666 43.404-66.666 84.306 0 43.176 31.738 79.072 73.112 85.6 14.552 61.46 52.794 113.856 104.526 146.968v50.22l-132.934 47.882c-44.32 15.966-70.27 25.922-88.262 44.87-18.114 19.080-25.324 43.094-34.632 89.708-0.066 0.334-0.124 0.668-0.172 1.004l-4.876 33.118c-0.848 5.75 0.852 11.586 4.648 15.986 3.8 4.398 9.324 6.928 15.136 6.928h661.025c0.032 0 0.058 0.004 0.090 0.004 0.028 0 0.056-0.004 0.086-0.004h79.042c5.812 0 11.338-2.53 15.136-6.928 3.8-4.402 5.498-10.238 4.65-15.988zM751.997 532.001v-72.436c15.752 7.502 26.668 23.574 26.668 42.15 0 18.696-11.056 34.85-26.968 42.29 0.198-3.978 0.3-7.98 0.3-12.004zM245.33 501.717c0-18.576 10.914-34.648 26.666-42.15v72.434c0 4.026 0.104 8.028 0.3 12.004-15.91-7.44-26.966-23.592-26.966-42.288zM711.997 412.005v1.362c-145.442-13.828-200.828-63.416-217.78-93.366h195.184c14.814 28.364 22.596 59.946 22.596 92.004zM342.865 120h47.006c11.044 0 20-8.954 20-20s-8.956-20-20-20h-47.006v-40h338.303v140h-338.303v-60zM342.865 220h338.303v60h-253.928c-0.046 0-0.092 0-0.136 0h-84.238v-60zM334.593 320.001h66.742c-20.352 61.274-63.344 83.14-89.32 90.89 0.178-31.676 7.938-62.854 22.578-90.89zM314.815 565.483c-0.004-0.024-0.008-0.046-0.012-0.070-1.836-10.87-2.806-22.028-2.806-33.412v-79.92c12.44-2.8 29.694-8.214 47.83-18.644 29.106-16.736 66.046-49.806 83.242-113.44h7.992c13.582 44.246 74.798 116.794 260.937 133.536v78.468c0 11.392-0.972 22.558-2.808 33.434-0.004 0.012-0.006 0.024-0.008 0.038-10.036 59.31-46.266 109.822-96.344 139.182-1.186 0.534-2.308 1.178-3.358 1.922-28.86 16.18-62.11 25.422-97.482 25.422h-0.004c-35.366 0-68.61-9.24-97.464-25.412-1.058-0.754-2.192-1.406-3.39-1.944-50.066-29.358-86.286-79.86-96.324-139.16zM165.040 983.996l1.43-9.7c14.916-74.67 16.626-75.28 97.122-104.278l136.16-49.044c11.472 7.706 32.558 19.778 60.786 27.030 9.23 2.372 19.708 4.306 31.2 5.334l0.228 130.658h-326.927zM511.701 814.184c-0.012 0-0.026 0-0.038 0-0.284 0-0.558 0.032-0.84 0.044-42.95 0.504-74.418-16.752-87.856-25.752v-33.608c27.544 11.044 57.592 17.132 89.032 17.132 31.446 0 61.49-6.088 89.036-17.132v32.516c-32.804 19.24-62.898 26.296-88.87 26.824-0.156-0.004-0.308-0.024-0.464-0.024zM819.588 983.994v0c-4.664-23.184-10.060-39.826-26.004-53.444-16.622-14.196-41.334-22.68-95.644-40.516-10.492-3.442-21.794 2.268-25.242 12.762-3.446 10.494 2.268 21.796 12.762 25.242 46.54 15.284 71.328 23.69 82.148 32.928 5.496 4.696 8.232 10.62 11.090 23.028h-246.734l-0.23-131.152c27.516-3.134 58.562-12.404 91.636-32.188l137.036 49.362c80.502 28.998 82.214 29.612 97.13 104.28l1.43 9.698h-39.378z",
          "M448.989 80h-0.948c-11.046 0-20 8.954-20 20s8.954 20 20 20h0.948c11.046 0 20-8.954 20-20s-8.954-20-20-20z"
        ],
        "attrs": [
          {},
          {},
          {},
          {},
          {}
        ],
        "isMulticolor": false,
        "isMulticolor2": false,
        "grid": 0,
        "tags": [
          "user"
        ]
      },
      "attrs": [
        {},
        {},
        {},
        {},
        {}
      ],
      "properties": {
        "order": 15,
        "id": 0,
        "name": "user",
        "prevSize": 32,
        "code": 59661
      },
      "setIdx": 0,
      "setId": 10,
      "iconIdx": 18
    }
  ],
  "height": 1024,
  "metadata": {
    "name": "icomoon"
  },
  "preferences": {
    "showGlyphs": true,
    "showQuickUse": true,
    "showQuickUse2": true,
    "showSVGs": true,
    "fontPref": {
      "prefix": "icon-",
      "metadata": {
        "fontFamily": "icomoon"
      },
      "metrics": {
        "emSize": 1024,
        "baseline": 6.25,
        "whitespace": 50
      },
      "embed": false
    },
    "imagePref": {
      "prefix": "icon-",
      "png": true,
      "useClassSelector": true,
      "color": 0,
      "bgColor": 16777215,
      "classSelector": ".icon",
      "height": 32,
      "columns": 16,
      "margin": 16
    },
    "historySize": 50,
    "showCodes": false,
    "gridSize": 16,
    "showLiga": true
  }
}